<svg xmlns="http://www.w3.org/2000/svg" xmlns:xlink="http://www.w3.org/1999/xlink" version="1.1" id="Layer_1" x="0" y="0" viewBox="0 0 525.2 155" xml:space="preserve" enable-background="new 0 0 525.2 155">
  <style type="text/css">
    
	.st0{fill:#FFFFFF;}
	.st1{fill:#CCCC99;}
	.st2{fill:#660000;}
	.st3{fill:#CCCC99;stroke:#CCCC99;stroke-width:8.000000e-02;stroke-linejoin:bevel;}
	.st4{fill:#CCCC99;stroke:#CCCC99;stroke-width:8.000000e-02;}

  </style>
  <path class="st0" d="M75.7 152.3c-41.4 0-75-33.6-75-75s33.6-75 75-75 75 33.6 75 75S117.1 152.3 75.7 152.3L75.7 152.3z"/>
  <path class="st1" d="M75.7 151.5c-40.9 0-74.2-33.3-74.2-74.2S34.8 3.1 75.7 3.1s74.2 33.3 74.2 74.2S116.6 151.5 75.7 151.5zM75.7 153c41.8 0 75.7-34 75.7-75.7 0-41.8-34-75.7-75.7-75.7C33.9 1.6 0 35.6 0 77.3 0 119.1 34 153 75.7 153z"/>
  <path class="st2" d="M75.7 137.5c-33.2 0-60.2-27-60.2-60.2s27-60.2 60.2-60.2 60.2 27 60.2 60.2S108.9 137.5 75.7 137.5L75.7 137.5z"/>
  <path class="st1" d="M75.7 136.7c-32.8 0-59.4-26.7-59.4-59.4 0-32.8 26.7-59.4 59.4-59.4 32.8 0 59.4 26.7 59.4 59.4C135.1 110.1 108.5 136.7 75.7 136.7zM75.7 138.2c33.6 0 60.9-27.3 60.9-60.9s-27.3-61-60.9-61 -61 27.3-61 61C14.8 110.9 42.1 138.2 75.7 138.2z"/>
  <path class="st1" d="M40.2 119.9l0.8-1.4 -1.8 0.6L40.2 119.9 40.2 119.9zM37.2 119.4c0.1 0.1 0.3 0.1 0.4 0.1s0.4-0.1 0.9-0.3l3.4-1.2 0.1 0.1 -1.8 3.1c-0.1 0.2-0.2 0.3-0.2 0.4s0.1 0.2 0.2 0.3l-0.1 0.1 -1.2-1 0.1-0.1c0.2 0.1 0.3 0.2 0.3 0.2 0.1 0 0.2 0 0.3-0.1 0 0 0 0 0.1-0.1v-0.1l0.4-0.7 -1.1-0.9 -0.7 0.3c-0.1 0-0.1 0-0.2 0.1 -0.1 0-0.2 0.1-0.2 0.1 -0.1 0.1-0.1 0.1 0 0.2 0 0.1 0.1 0.1 0.2 0.2l-0.1 0.1L37.2 119.4 37.2 119.4 37.2 119.4z"/>
  <path class="st1" d="M44.1 123.3c0.4-0.2 0.7-0.5 0.9-0.8 0.2-0.3 0.3-0.6 0.3-1 0-0.3-0.2-0.6-0.6-0.9 -0.1-0.1-0.2-0.1-0.3-0.1 -0.1 0-0.1 0-0.2 0l-2.5 2 -0.1 0.1c0 0 0 0-0.1 0.1s-0.1 0.1 0 0.2c0 0.1 0.1 0.1 0.2 0.2C42.6 123.6 43.3 123.7 44.1 123.3L44.1 123.3zM40.6 122.2c0.1 0.1 0.2 0.1 0.3 0.1 0.1 0 0.2-0.1 0.4-0.2l2.3-1.8c0.1-0.1 0.1-0.1 0.2-0.1l0.1-0.1c0.1-0.1 0.1-0.2 0-0.2 0-0.1-0.1-0.2-0.3-0.3l0.1-0.1 1.3 1c0.2 0.2 0.4 0.4 0.6 0.5 0.1 0.2 0.3 0.4 0.3 0.6s0 0.4 0 0.6c0 0.3-0.2 0.5-0.3 0.8 -0.4 0.5-0.9 0.8-1.6 0.9s-1.4-0.1-2.1-0.6L40.6 122.2 40.6 122.2 40.6 122.2z"/>
  <path class="st1" d="M49.2 126l0.6-1.6 -1.6 1L49.2 126 49.2 126zM46.1 126.1c0.1 0 0.3 0 0.4 0s0.4-0.2 0.8-0.4l3.1-1.9 0.1 0.1 -1.2 3.4c-0.1 0.2-0.1 0.4-0.1 0.4 0 0.1 0.1 0.2 0.2 0.3l-0.1 0.1 -1.4-0.8v-0.1c0.2 0.1 0.3 0.1 0.4 0.1s0.2 0 0.2-0.1v-0.1V127l0.3-0.8 -1.2-0.7 -0.7 0.4 -0.1 0.1c-0.1 0.1-0.1 0.1-0.2 0.2 0 0.1 0 0.1 0 0.2s0.1 0.1 0.2 0.2v0.1L46.1 126.1 46.1 126.1 46.1 126.1z"/>
  <path class="st1" d="M50.8 127.3l0.1 0.1c0 0.1-0.1 0.1-0.1 0.1 -0.1 0.3-0.2 0.6-0.1 0.8 0.1 0.2 0.2 0.4 0.5 0.5 0.2 0.1 0.4 0.1 0.7 0 0.2-0.1 0.3-0.2 0.4-0.4 0-0.1 0.1-0.2 0.1-0.2 0-0.1 0-0.3 0-0.4l-0.2-0.6c-0.1-0.4-0.2-0.7-0.2-0.9 0-0.2 0-0.3 0.1-0.5s0.3-0.4 0.6-0.5c0.3-0.1 0.6-0.1 0.9 0.1 0.2 0.1 0.3 0.2 0.4 0.3 0.1 0.1 0.2 0.2 0.3 0.2 0.1 0 0.1 0 0.2 0s0.1 0 0.1-0.1l0.1 0.1 -0.8 1 -0.1-0.1c0.1-0.3 0.2-0.5 0.2-0.6 0-0.3-0.2-0.5-0.5-0.6 -0.2-0.1-0.4-0.1-0.5 0 -0.2 0-0.3 0.2-0.4 0.3 -0.1 0.1-0.1 0.2-0.1 0.4 0 0.1 0.1 0.3 0.1 0.5l0.3 0.8c0 0.1 0.1 0.3 0.1 0.4 0 0.2 0 0.3-0.1 0.5 -0.1 0.3-0.4 0.5-0.7 0.7 -0.3 0.1-0.6 0.1-1 0 -0.2-0.1-0.3-0.2-0.5-0.4 -0.2-0.2-0.3-0.2-0.3-0.3 -0.1 0-0.1 0-0.2 0 0 0-0.1 0-0.1 0.1H50L50.8 127.3 50.8 127.3z"/>
  <path class="st1" d="M53.5 129.9c0.2 0 0.3 0.1 0.4 0.1s0.3-0.1 0.4-0.3l2-2.8c-0.5-0.2-0.8-0.3-0.9-0.2 -0.2 0-0.4 0.2-0.7 0.4l-0.1-0.1 0.6-0.8 3.1 1.2 -0.6 0.9 -0.1-0.1 0.1-0.2c0.1-0.2 0.1-0.3 0-0.4 0-0.1-0.2-0.2-0.4-0.3l-0.3-0.1 -1.9 2.6c0 0.1-0.1 0.1-0.1 0.2s-0.1 0.1-0.1 0.2 0 0.2 0 0.3c0.1 0.1 0.2 0.1 0.4 0.2v0.1L53.5 129.9 53.5 129.9 53.5 129.9z"/>
  <path class="st1" d="M59.2 129.6L59.2 129.6c0.4 0.1 0.7 0.1 0.9 0 0.3-0.1 0.4-0.3 0.5-0.6 0.1-0.3 0.1-0.4 0-0.6 -0.1-0.1-0.3-0.2-0.5-0.3 -0.1 0-0.1 0-0.2 0 0 0-0.1 0-0.1 0.1l-0.8 1.2C59.1 129.6 59.2 129.6 59.2 129.6L59.2 129.6zM56.8 131.1c0.1 0 0.2 0 0.3 0 0.1 0 0.2-0.1 0.3-0.3l1.6-2.4c0-0.1 0.1-0.1 0.1-0.2s0.1-0.1 0.1-0.2c0-0.1 0-0.2 0-0.2 -0.1-0.1-0.2-0.1-0.3-0.2v-0.1l1.5 0.5c0.3 0.1 0.5 0.2 0.7 0.3 0.3 0.3 0.4 0.6 0.3 0.9s-0.4 0.6-0.7 0.7c-0.2 0-0.5 0.1-0.8 0l0.1 1.6c0 0.2 0 0.3 0.1 0.4 0 0.1 0.1 0.2 0.3 0.2v0.1l-0.9-0.3 -0.1-2.2 -0.4-0.2 -0.7 1.1c0 0.1-0.1 0.1-0.1 0.1 -0.1 0.1-0.1 0.2-0.1 0.2 0 0.1 0 0.2 0 0.2 0.1 0.1 0.2 0.1 0.3 0.2v0.1L56.8 131.1 56.8 131.1 56.8 131.1z"/>
  <path class="st1" d="M63.7 131.5l0.1-1.7 -1.3 1.4L63.7 131.5 63.7 131.5zM60.8 132.3c0.1 0 0.3 0 0.4-0.1s0.3-0.3 0.7-0.6l2.5-2.6h0.1l-0.3 3.6c0 0.2 0 0.4 0 0.4 0 0.1 0.1 0.1 0.3 0.2v0.1l-1.5-0.4v-0.1c0.2 0 0.3 0 0.4 0s0.2-0.1 0.2-0.2v-0.1 -0.1l0.1-0.8 -1.3-0.3 -0.5 0.6 -0.1 0.1c-0.1 0.1-0.1 0.2-0.1 0.2 0 0.1 0 0.1 0 0.2 0 0 0.1 0.1 0.3 0.1v0.1L60.8 132.3 60.8 132.3 60.8 132.3z"/>
  <path class="st1" d="M66.9 133.7c0.1 0 0.2 0 0.3 0 0.1 0 0.2-0.2 0.3-0.3l1.1-2.7 0.1-0.2v-0.1c0 0 0 0 0-0.1s0-0.2-0.1-0.2 -0.2-0.1-0.3-0.1v-0.1l1.5 0.2c0.3 0 0.6 0.1 0.8 0.2 0.3 0.2 0.5 0.5 0.5 0.9 0 0.2-0.1 0.5-0.3 0.6 -0.3 0.3-0.9 0.5-1.6 0.4 -0.1 0-0.2 0-0.3 0 -0.1 0-0.2 0-0.2-0.1l-0.5 1.2c0 0.1-0.1 0.1-0.1 0.2s0 0.1-0.1 0.2c0 0.1 0 0.2 0.1 0.2s0.2 0.1 0.3 0.1v0.1l-1.5-0.2L66.9 133.7 66.9 133.7zM68.9 131.8c0.1 0 0.1 0 0.2 0 0.3 0 0.6 0 0.7 0 0.3-0.1 0.5-0.4 0.6-0.8 0-0.3 0-0.5-0.2-0.6 -0.1-0.1-0.3-0.2-0.6-0.2 -0.1 0-0.2 0-0.2 0 -0.1 0-0.1 0.1-0.1 0.1l-0.6 1.5C68.8 131.8 68.8 131.8 68.9 131.8L68.9 131.8z"/>
  <path class="st1" d="M71.1 134.2c0.1 0 0.3 0 0.3-0.1 0.1-0.1 0.2-0.2 0.2-0.4l0.9-2.8c0-0.1 0-0.2 0.1-0.2 0-0.1 0-0.1 0-0.2s0-0.2-0.1-0.2 -0.2-0.1-0.4-0.1v-0.1l3.1 0.1 -0.2 0.9h-0.1c0-0.1 0-0.1 0-0.2s0-0.1 0-0.1c0-0.2-0.1-0.3-0.2-0.4 -0.1-0.1-0.5-0.1-0.9-0.1 -0.2 0-0.3 0-0.4 0 -0.1 0-0.1 0.1-0.1 0.1l-0.5 1.4c0.6 0 0.9 0 1-0.1 0.1 0 0.2-0.2 0.4-0.5h0.1l-0.5 1.4h-0.1c0-0.1 0-0.2 0-0.2v-0.1c0-0.1 0-0.2-0.1-0.3 -0.1 0-0.3-0.1-0.5-0.1h-0.4l-0.4 1.4v0.1 0.1c0 0.1 0 0.1 0 0.2 0.1 0.1 0.2 0.1 0.4 0.1 0.6 0 1 0 1.2-0.1 0.3-0.1 0.5-0.3 0.8-0.7l0.1 0.1 -0.4 1L71.1 134.2 71.1 134.2 71.1 134.2z"/>
  <path class="st1" d="M77.1 132.1h0.1c0.3 0 0.6-0.1 0.8-0.2 0.2-0.2 0.3-0.4 0.3-0.8 0-0.3-0.1-0.4-0.2-0.5 -0.2-0.1-0.3-0.1-0.6-0.1 -0.1 0-0.1 0-0.2 0l-0.1 0.1 -0.4 1.5C76.9 132.1 77 132.1 77.1 132.1L77.1 132.1zM75.3 134.3c0.1 0 0.2 0 0.3-0.1s0.2-0.2 0.2-0.4l0.7-2.8c0-0.1 0-0.1 0-0.2s0-0.1 0-0.2 0-0.2-0.1-0.2 -0.2-0.1-0.3-0.1v-0.1l1.6-0.1c0.3 0 0.5 0 0.8 0.1 0.4 0.1 0.6 0.4 0.6 0.8s-0.1 0.7-0.5 0.9c-0.2 0.1-0.4 0.2-0.7 0.3l0.6 1.5c0.1 0.1 0.1 0.3 0.2 0.3 0.1 0.1 0.2 0.1 0.3 0.1v0.1h-0.9l-0.8-2h-0.4l-0.3 1.3c0 0.1 0 0.1 0 0.2s0 0.2 0 0.2c0 0.1 0 0.2 0.1 0.2s0.2 0.1 0.3 0.1v0.1l-1.5 0.1L75.3 134.3 75.3 134.3z"/>
  <path class="st1" d="M81.8 132.8h0.1c0 0.1 0 0.1 0 0.1 0 0.3 0.2 0.6 0.4 0.7 0.2 0.2 0.4 0.2 0.7 0.2s0.4-0.2 0.6-0.3c0.1-0.2 0.2-0.4 0.1-0.6 0-0.1 0-0.2-0.1-0.2 -0.1-0.1-0.1-0.2-0.2-0.3l-0.5-0.4c-0.3-0.3-0.6-0.5-0.7-0.6 -0.1-0.1-0.2-0.3-0.2-0.4 0-0.3 0-0.5 0.2-0.7s0.4-0.4 0.8-0.4c0.2 0 0.3 0 0.5 0s0.3 0 0.3 0c0.1 0 0.1 0 0.2-0.1l0.1-0.1h0.1l-0.1 1.3H84c-0.1-0.3-0.1-0.5-0.2-0.6 -0.2-0.2-0.4-0.3-0.7-0.3 -0.2 0-0.4 0.1-0.5 0.2s-0.2 0.3-0.1 0.5c0 0.1 0.1 0.3 0.1 0.3 0.1 0.1 0.2 0.2 0.4 0.4l0.6 0.5c0.1 0.1 0.2 0.2 0.3 0.3 0.1 0.1 0.1 0.3 0.2 0.5 0 0.3 0 0.6-0.2 0.9s-0.5 0.4-0.9 0.5c-0.2 0-0.4 0-0.6 0 -0.2 0-0.3-0.1-0.4-0.1 -0.1 0-0.1 0-0.2 0.1 0 0 0 0.1-0.1 0.2h-0.1L81.8 132.8 81.8 132.8z"/>
  <path class="st1" d="M87.8 128.9c0.2 0 0.4 0 0.4 0 0.1 0 0.1 0 0.2-0.1v-0.1h0.1v1.3h-0.1c-0.1-0.2-0.2-0.4-0.3-0.5 -0.2-0.2-0.5-0.3-0.9-0.2 -0.6 0.1-1 0.5-1.2 1.1s-0.3 1.1-0.1 1.7c0.1 0.4 0.2 0.7 0.5 0.9 0.2 0.2 0.5 0.2 0.8 0.2 0.3-0.1 0.6-0.2 0.8-0.4 0.1-0.1 0.3-0.3 0.5-0.6l0.1 0.1c-0.2 0.3-0.4 0.6-0.6 0.8 -0.2 0.2-0.5 0.4-0.9 0.4 -0.5 0.1-0.9 0-1.3-0.2 -0.3-0.3-0.6-0.6-0.7-1 -0.1-0.6 0-1.2 0.3-1.9 0.4-0.7 0.9-1.1 1.6-1.3C87.4 128.9 87.5 128.9 87.8 128.9L87.8 128.9z"/>
  <path class="st1" d="M89.7 132.6c0.1 0 0.2-0.1 0.3-0.2s0.1-0.2 0.1-0.4v-2.9c0-0.1 0-0.2 0-0.2v-0.1c0-0.1-0.1-0.2-0.1-0.2 -0.1 0-0.2 0-0.4 0v-0.1l1.5-0.4v0.1c-0.2 0.1-0.3 0.1-0.3 0.2s-0.1 0.2-0.1 0.4v2.9c0 0.1 0 0.2 0 0.2 0 0.1 0 0.1 0 0.1 0 0.1 0.1 0.2 0.2 0.2 0.1 0 0.2 0 0.3 0v0.1L89.7 132.6 89.7 132.6 89.7 132.6z"/>
  <path class="st1" d="M92.1 131.9c0.1-0.1 0.2-0.1 0.3-0.2s0.1-0.2 0.1-0.4l-0.2-2.9c0-0.1 0-0.2 0-0.2 0-0.1 0-0.1 0-0.2 0-0.1-0.1-0.1-0.2-0.2 -0.1 0-0.2 0-0.4 0.1v-0.1l3-1 0.1 1h-0.1c0-0.1 0-0.1 0-0.2s0-0.1 0-0.1c-0.1-0.2-0.2-0.3-0.3-0.3 -0.2 0-0.5 0.1-0.9 0.2 -0.2 0.1-0.3 0.1-0.4 0.2 0 0-0.1 0.1-0.1 0.2l0.1 1.5c0.5-0.2 0.8-0.3 0.9-0.4 0.1-0.1 0.1-0.3 0.2-0.6h0.1l0.1 1.5h-0.1c0-0.1 0-0.2 0-0.2v-0.1c0-0.1-0.1-0.2-0.2-0.2 -0.1 0-0.3 0-0.5 0.1l-0.3 0.1 0.1 1.4v0.1 0.1c0 0.1 0.1 0.1 0.1 0.1 0.1 0 0.2 0 0.4 0 0.5-0.2 0.9-0.4 1.1-0.6 0.2-0.2 0.3-0.5 0.5-0.9h0.1v1.1L92.1 131.9 92.1 131.9 92.1 131.9z"/>
  <path class="st1" d="M96 130.6c0.2-0.1 0.2-0.2 0.3-0.3 0-0.1 0-0.4-0.1-0.8l-0.4-2.7c0 0 0 0-0.1-0.1 -0.1 0-0.1-0.1-0.2-0.1h-0.1c-0.1 0-0.1 0-0.2 0.1v-0.1l0.9-0.4 2.4 2.3 0 0 -0.4-2.5c0-0.1 0-0.1 0-0.2s0-0.1 0-0.1c0-0.1-0.1-0.2-0.2-0.2 -0.1 0-0.2 0-0.3 0.1v-0.1l1.1-0.5v0.1c-0.2 0.1-0.2 0.2-0.3 0.3 0 0.1 0 0.4 0.1 0.8l0.4 2.8c0 0.1 0 0.2 0 0.2s0 0.1 0 0.3h-0.1l-2.7-2.5 0 0 0.4 2.7c0 0 0 0.1 0 0.2s0 0.1 0 0.1c0 0.1 0.1 0.2 0.2 0.2 0.1 0 0.2 0 0.3-0.1v0.1L96 130.6 96 130.6 96 130.6z"/>
  <path class="st1" d="M100.7 128.5c0.2-0.1 0.3-0.2 0.3-0.3 0.1-0.1 0.1-0.3 0.1-0.5l-0.8-3.4c-0.4 0.2-0.7 0.4-0.8 0.5s-0.2 0.4-0.2 0.8h-0.1l-0.2-1 3-1.6 0.2 1h-0.1l-0.1-0.2c-0.1-0.2-0.2-0.3-0.3-0.3s-0.3 0-0.5 0.1l-0.3 0.2 0.7 3.2c0 0.1 0 0.1 0 0.2s0 0.1 0.1 0.2 0.1 0.2 0.2 0.1c0.1 0 0.2-0.1 0.4-0.2v0.1L100.7 128.5 100.7 128.5 100.7 128.5z"/>
  <path class="st1" d="M103.8 126.9c0.1-0.1 0.2-0.2 0.2-0.2 0-0.1 0-0.2 0-0.4l-0.8-2.8c0-0.1-0.1-0.2-0.1-0.2s0-0.1-0.1-0.1c-0.1-0.1-0.1-0.1-0.2-0.1 -0.1 0-0.2 0-0.3 0.1l-0.1-0.1 1.3-0.8 0.1 0.1c-0.1 0.1-0.2 0.2-0.2 0.3 0 0.1 0 0.2 0 0.4l0.8 2.8c0 0.1 0.1 0.2 0.1 0.2 0 0.1 0 0.1 0.1 0.1 0.1 0.1 0.1 0.1 0.2 0.1 0.1 0 0.2 0 0.3-0.1l0.1 0.1L103.8 126.9 103.8 126.9 103.8 126.9z"/>
  <path class="st1" d="M107.1 122.9l-1.2-1.2 0.2 1.9L107.1 122.9 107.1 122.9zM105.8 125.7c0.1-0.1 0.1-0.2 0.2-0.3 0-0.1 0-0.4 0-0.9l-0.3-3.6 0.1-0.1 2.5 2.6c0.2 0.2 0.3 0.3 0.4 0.3 0.1 0 0.2 0 0.3-0.1l0.1 0.1 -1.3 0.9 -0.1-0.1c0.1-0.1 0.2-0.2 0.3-0.3 0.1-0.1 0-0.2 0-0.3 0 0 0 0-0.1-0.1 0 0 0 0-0.1-0.1l-0.6-0.6 -1.1 0.8 0.1 0.8c0 0.1 0 0.1 0 0.2s0.1 0.2 0.1 0.2c0 0.1 0.1 0.1 0.2 0.1 0.1 0 0.2 0 0.3-0.1l0.1 0.1L105.8 125.7 105.8 125.7 105.8 125.7z"/>
  <path class="st1" d="M109.4 123.3c0.1-0.1 0.2-0.3 0.2-0.4s-0.1-0.4-0.2-0.7l-1.1-2.6c0-0.1-0.1-0.1-0.2-0.1 -0.1 0-0.2 0.1-0.3 0.2l-0.1-0.1 0.9-0.7 2.2 2.2 0 0 -0.3-3.8 0.8-0.7 0.1 0.1c-0.1 0.1-0.2 0.2-0.2 0.3 0 0.1 0 0.2 0.1 0.4l1.2 2.6c0 0.1 0.1 0.1 0.1 0.2s0.1 0.1 0.1 0.1c0.1 0.1 0.1 0.1 0.2 0.1 0.1 0 0.2-0.1 0.3-0.2l0.1 0.1 -1.3 1.1 -0.1-0.1c0.1-0.1 0.2-0.2 0.2-0.3 0.1-0.1 0-0.3 0-0.5l-1.2-2.8 0 0 0.4 4.2 -0.1 0.1 -2.4-2.4 0 0 1.1 2.5c0 0.1 0.1 0.1 0.1 0.2s0.1 0.1 0.1 0.1c0.1 0.1 0.2 0.1 0.3 0.1s0.2-0.1 0.3-0.1l0.1 0.1L109.4 123.3 109.4 123.3 109.4 123.3z"/>
  <polygon class="st1" points="40.4 40.3 46 34.9 41.1 31.9 46.7 33.2 44.3 27.7 48.6 32.4 49.3 26.7 50.4 32.1 56.8 28.8 51.5 34.1 56.1 35.5 51.5 36.2 56.7 45.8 49.6 37.2 47.2 41.5 47.3 36.7 "/>
  <path class="st0" d="M75.7 113.7c20.2 0 36.6-17 36.6-36.4S95.6 40.5 75.4 40.5 39 57.7 39 77.3C39.1 96.7 55.5 113.7 75.7 113.7L75.7 113.7z"/>
  <path class="st1" d="M75.7 114.5c20.3 0 37.4-17 37.4-37.2 0-20.4-17.2-37.6-37.6-37.6 -20.1 0-37.1 17.2-37.1 37.6C38.3 97.4 55.4 114.5 75.7 114.5zM75.7 113c-19.4 0-35.9-16.3-35.9-35.7 0-19.5 16.3-36 35.6-36 9.5 0 18.6 3.9 25.5 10.9 6.8 6.8 10.6 16 10.6 25.2C111.6 96.6 95.1 113 75.7 113z"/>
  <path class="st1" d="M72.3 49.9c0.3-0.6 1-0.2 1.4-0.6 0.1-0.1 0-0.3 0-0.3 0.2-0.1 0.5-0.1 0.6 0 0.2 0.2 0.3 0.6 0.6 0.7 0.6 0.3 1.2-0.6 1.8-0.3 0.4 0.2 0.6 0.9 1 1.2 0.9 0.6 2.1-0.1 2.9 0.6 0.6 0.5 0.5 1.4 1.1 1.9 0.8 0.6 1.9 0.7 2.4 1.5 0.9 1.4 0 1.4 0.2 1.2 -0.3 0.4-0.9 0.8-1.1 0.7 -1.2-0.3-2.9 0.2-3.7-1.1 -0.3-0.4-1.2-0.5-1.9-0.3v0.2c-0.4 0.1-0.8 0.3-1.1 0.1 -1-0.8-2.2-0.5-3.1-1.1 -0.5-0.3-0.6-1.3-0.5-2.1C71.6 51.9 71.9 50.7 72.3 49.9L72.3 49.9z"/>
  <path class="st1" d="M88.6 49.3c0.6 0.3 1.5-0.2 1.9 0.2 0.3 0.4 1.2 0.7 0.8 1.1 -0.2 0.2-0.6 1-1 1 0-0.2-0.2-0.9-0.3-1 -0.4-0.2-0.7-0.6-1.2-0.4 0-0.3 0-0.5 0-0.8C88.8 49.4 88.7 49.4 88.6 49.3L88.6 49.3z"/>
  <path class="st1" d="M91.4 51.6c0.4 0.2 0.2 1.2 0.3 1.5 -0.1 0-0.3-0.5-0.4-0.5 -0.5 0 0.1-0.6-0.3-0.9C91.1 51.7 91.3 51.5 91.4 51.6L91.4 51.6z"/>
  <path class="st1" d="M83 51c0.6-0.5 1.5 1.4 0.9 1.8C83 53.4 82.6 51.3 83 51L83 51z"/>
  <path class="st1" d="M86.9 63.1c0.6-0.2 0.5-0.8 0.5-1.3 0.4 0.1 0.7-0.2 1-0.1 -0.2 0.2 0.1 0.4 0.2 0.5 0.3 0.5 1 0.3 1.3 0.6 -0.2-0.2 0.5 1-0.2 1.2 -0.7 0.2-1.5 0.1-2.2 0 -0.4 0-0.6-0.4-0.9-0.6 -0.4-0.3 0.4-0.3 0.6-0.7"/>
  <path class="st1" d="M72.1 56.5c1.4 0.1 2.6-0.6 4-0.1 0.2 0.1 0.5 0.3 0.6 0.4 1 1 1.1 1.3 1 1.6 -0.1 0.4-0.5 0.7-0.9 0.9 -0.3 0.2 0 0.4-0.1 0.5s-0.3 0.1-0.4 0c-0.3-0.2-0.4-0.5-0.7-0.8 -0.4-0.5 0.2-1.3-0.4-1.6 -0.2-0.1-0.4-0.3-0.6-0.2 -0.1 0-0.2 0.1-0.1 0.3 -0.2 0-0.4 0-0.5 0s-0.2-0.1-0.1-0.3c-0.7 0.1-1.8-0.1-1.6-0.8C72.3 56.5 72.2 56.5 72.1 56.5L72.1 56.5z"/>
  <path class="st1" d="M69.6 52.3c0.5 0.1 0.9 0.2 1.3 0.4 0.2 0.1 0.2 0.4 0.3 0.6 0.1 0.2 0.3 0.3 0.5 0.6 0.1 0.1 0.2 0.9 0.1 1 -0.4 0.3-1.1 0.2-0.8 0.7 -0.9 0.2-0.6-0.8-0.9-1.3 -0.1-0.1-0.2-0.2-0.4-0.1 0.3-0.5-0.2-0.8-0.4-1.3 -0.1-0.2 0.1-0.4 0.1-0.6C69.5 52.1 69.7 52.2 69.6 52.3L69.6 52.3z"/>
  <path class="st1" d="M69.3 56.2c0.4 0.1 0.8 0.3 1.2 0.5 0.2 0.1-0.2 0.4-0.5 0.3 0 1.3-0.2 1-1 0.5 -0.2-0.1-0.4-0.5-0.3-0.7C68.9 56.5 68.8 56 69.3 56.2L69.3 56.2z"/>
  <path class="st1" d="M67.4 53.7c0-0.1-1.3 1.7-0.8 0.7 0 0.1-0.3 0.1-0.3-0.1 0-0.4 0.6-0.3 0.6-0.8C67.1 53.5 67.3 53.6 67.4 53.7L67.4 53.7z"/>
  <path class="st1" d="M65.6 56.8c0.2 0.1 0.4 0.3 0.4 0.5 0.3-0.1 0.3 0.1 0.4 0.4 -0.6 0-1.2-0.2-1-0.9C65.3 56.8 65.5 56.8 65.6 56.8L65.6 56.8z"/>
  <path class="st1" d="M67.3 58.5c0.5 0 0.5-0.9 0.9-0.7 0.2 0.1 0.2 0.6 0.5 0.8 0.3 0.4 0.1 1.1-0.1 1.3 0 0.1-0.2 0-0.3-0.2 -0.4-0.5-0.9-0.4-1.3-0.8 -0.3-0.3 0.1-0.7 0.6-0.6 -0.1-0.2 0.5-0.2 0.4-0.4"/>
  <path class="st1" d="M52 64.8c0.3 0.4 0.5 0.7 1 0.5 -0.2 0.2-0.7 0.6-0.8 0.6C51.8 65.9 51.9 65.3 52 64.8L52 64.8z"/>
  <path class="st1" d="M49.2 61.2c0.2 0 0.6-0.1 0.6 0 0.2 0.4-0.4 0.4-0.3 0.9 0 0.2-0.4 0.1-0.5 0.1C48.7 61.9 49.3 61.6 49.2 61.2L49.2 61.2z"/>
  <path class="st1" d="M50.4 63.6c0.3 0 0.3 0.2 0.2 0.4 0 0.1-0.5 0.3-0.5 0.2C50 64.1 49.9 64 50 63.7 50 63.5 50.2 63.6 50.4 63.6L50.4 63.6z"/>
  <path class="st1" d="M53.9 65.3c0.4 0 0.7 0 1 0 -1.2 1.1-0.9 0.4-0.9 0.4C54.1 65.5 53.9 65.4 53.9 65.3L53.9 65.3z"/>
  <path class="st1" d="M86.2 83.4c0.3 0.2 0.5 0.7 0.6 1.1 -1-0.3-1.7 0-2.5-0.3V84c0.5-0.2 1.1-0.1 1.5-0.2C86 83.8 85.8 83.1 86.2 83.4L86.2 83.4z"/>
  <path class="st1" d="M88.5 82.3c0.3 0.1 0.2 0.5 0.4 0.6 0.5 0.2 0.8-0.2 0.6-0.6 0.3 0 0.8-0.1 1 0.1 0.3 0.4 0.1 0.9-0.5 1.1 -0.3 0.1 0.4 0.6 0.7 0.8 0.1 0 0.1 0.3 0 0.3 -0.3 0.2-2 0-1.5 0.2 -0.1 0 0-0.3 0-0.5 -1 0.1-1-0.8-0.9-1.6 -0.2 0.1-0.2-0.1-0.4-0.1 0.3-0.2 0-0.7 0.5-0.5C88.2 82.2 88.3 82.3 88.5 82.3z"/>
  <path class="st1" d="M92.9 84.4c0.3 0.1 0.4 0 0.7 0 0.2 0-0.1-0.2 0-0.4 -0.3 0-0.6 0-0.9 0C92.7 84.2 92.5 84.3 92.9 84.4L92.9 84.4z"/>
  <path class="st1" d="M96.2 81.8c0.1-0.1 0.2-0.3 0.4-0.2 0.1 0 0.3 0.4 0.3 0.5 -0.1 0.1-0.3 0.2-0.5 0.2C96.4 82 95.9 82 96.2 81.8L96.2 81.8z"/>
  <path class="st1" d="M62.7 70L62.7 70C62.7 69.8 62.7 69.9 62.7 70z"/>
  <path class="st1" d="M108.7 85.3c0.1-0.1 0.3-0.1 0.3-0.2 0.7-0.7 1-1.8 0.5-2.5 -0.1-0.1-0.2-0.3-0.2-0.5h-0.1c-0.2-1-0.2-1.2-0.5-1.3 -0.9-0.3-2.1-0.2-2.5 0.6l0.1 0.6c-0.6 1-1.7 1.1-2.7 1.4v0.2c-0.6 0.2-1.4 0.6-1.8-0.1 -0.1-0.2-0.1-0.4-0.2-0.6 0-0.1-0.2-0.1-0.4-0.1 -0.9-0.2-1.4 1.3-2 0.8 -0.4-0.3-1.1-0.5-1.3-0.3 -0.4 0.3-4.6 3.4-4.8 3.8s-0.6 1-1 1.1c-0.7 0.3-1.2 0.9-1.5 1.6 -0.7 0.2-1.4 0.2-1.9-0.2 -0.5-0.5-1.2-1.1-1-1.9 -0.4 0-0.7 0.1-1 0.3 -0.5 0.3-1.4 0.3-1.9-0.1 -0.7-0.5 0.1-1.7-0.5-2.2 -0.4-0.3-1.2-0.6-1.5-0.1 -0.5 0.7-0.6 1.7-1.1 2.3 -0.6 0.7-1.8-0.1-2.5-0.7 -0.4-0.4-0.9-0.9-1.1-1.4 -0.5-1.1 0-2.4 1.1-3.1 0.4-0.2 0.8-1 1.1-1.2v-0.1c0.1-0.1 0.2-0.1 0.3-0.2 0.7-0.5 1.4-0.2 2-0.2 0.5-0.1 1 0 1.2 0.5 0 0.1 0.1 0.2 0.1 0.3l0.1-0.1c0.4 0.3 0.2 0.8 0.3 1.1 0.1 0.2 0.5 0.2 0.6 0 0.1-0.5 0.2-0.9 0.1-1.4 -0.2-0.9-0.6-1.8-0.6-2.7 0-0.1 0.3-0.2 0.3-0.3 0.2-0.6-0.3-1.1 0.2-1.5 0.1-0.1 0.6 0.2 0.7 0 0.3-1.2 0-2.3-0.2-3.5 -0.4 0.1-0.5-0.2-0.6-0.4 -0.3-0.4 0.3-0.7 0.4-1 0.1-0.4-0.1-0.9 0.1-1.3 0.2-0.3 0.5-0.6 0.3-0.9 -0.1-0.1-0.1-0.2-0.1 0.3l0 0c-0.2-0.4-0.4-0.7-0.2-1.1 0.7-1 0.4-2 0.1-3.1 0-0.2-0.5-0.2-0.7-0.3 -0.4-0.3 0.2-0.7 0.4-1 0.2-0.4 0.9-0.5 1.1-1 0.3-0.7-0.2-1.3-0.8-1.8 -0.1-0.1-0.4-0.1-0.5 0s0 0.4-0.1 0.6c-0.1 0.2-0.3-0.1-0.5-0.1 0-0.1 0-0.2 0-0.2 -0.2-0.2-0.5-0.1-0.7-0.2 -0.2-0.1-0.5 0-0.6-0.5 0-0.2-0.5-0.1-0.7-0.2 -0.4-0.5-1.1-0.6-1.6-0.7 0.1 0.4-0.4 0.5-0.5 0.7 -0.2 0.5-0.1 1.2 0.1 1.8 -0.1-0.4-0.8-0.2-0.7-0.8 -0.2 0-0.4-0.2-0.7-0.1 0.2-0.5-0.8-0.6-0.7-1.1 0-0.1-0.1-0.3-0.1-0.2 -0.9 0.3-1.2 1.1-0.7 1.9 0.6 0.9 1.2 1.8 1.3 2.9 0 0.5 0.5 0.8 0.9 1.1 0.4 0.2 0.7 1 1 1.5 0.4 0.5 0 1-0.7 0.9 -0.8-0.2-1-1.1-1.7-1.3 -0.3-0.1-0.5-0.1-0.8-0.2 -0.6-0.2-0.5-1.1-1-1.4 -0.3-0.2-0.8 0.4-1-0.1 -0.1-0.3-0.3-0.6-0.6-0.7 -1.1-0.3-2.3-0.4-2.6-1.6 -0.1-0.7-0.1-1.3 0-2 0.1-0.5 0.7-0.7 0.8-1.2s0.1-1.3-0.3-1.3c-0.8 0-1.3 1-1.9 1.6 -0.4 0.4-1 0.5-1.6 0.2 0 0 0-0.1 0-0.2 -0.3 0-0.4-0.4-0.6-0.2 -0.4 0.4-0.6 0.6-1 0.7 -0.4 0.1-0.4 0.5-0.8 0.6 -0.6 0.1-1.1-0.2-1.6-0.4 -1-0.4-2.3-0.1-3.2-0.8 -0.6-0.5-1-1.2-1.3-2 -0.2-0.6-1.1-0.9-1.7-0.4 -1.1 0.9-1.7 2.2-2.9 3 0.2-0.1 0.2 0 0.3 0 -0.1 0.4-0.7 0.4-0.8 0.6 -0.6 0.9-0.7 2.3-0.2 3.1 0.5 0.9 1.7-0.2 2.5-0.6 0.7-0.4 1.6 0.1 2.3 0.6 0.9 0.6 1.4 1.5 2 2.5 0.5 0.7 0.5 1.5 0.5 2.4h-0.1c0 0 0 0.1 0 0.2h0.1v0.1H63c0.2 0.6 0.2 1.5-0.3 1.7 -0.4 0.2-0.1 0.7-0.2 1.1 0.1 0 0.3 0 0.4 0 0.3 0.4 0.5 1.4 0.9 1.8 -0.6-0.1-0.8 0.2-0.8 0.7 -0.1 1.4-0.1 2.9 0.2 4.3 0.2 0.5 0.4 1 0.6 1.5h0.1l0 0c0.5 1 1.3 2.4 2 3.3 0 0.1 0.1 0.1 0.1 0.2l0 0c0 0.1 0.1 0.1 0.1 0.2 0 0 0 0 0-0.1 0 0.1 0.1 0.1 0.1 0.2 0.1 0.2 0.3 0.4 0.2 0.6 1.2 0.6 2.1 0.9 2.6 2 0.2 0.4 0 1 0.5 1.2 0.4 0.2 0.9 0.2 1.3 0 0.1 0 0-0.4 0-0.6 -0.3 0-0.4-0.3-0.5-0.4 -0.1-1.2-1.4-1.1-1.9-1.9 -0.3-0.4-0.8-1.3-0.5-1.2 1.6 0.4 2.9 1.9 3.6 3.6 0.1 0.3 0.4 0.6 0.8 0.8 1.2 0.6 2.5 0.4 3.8 0.5 3.1 0.3 6.2 0.3 9.3 0.5 1 0.1 1.3 1.7 2.3 1.5 0.1 0 0.5-0.2 0.6-0.5 0.2-0.4 1 0.1 1.3-0.2 0.6-0.7 1.7-1.6 2.3-0.6 0.4 0.7 0.4 1.6 0 2.4 -0.3 0.7-1 1.3-0.9 2.1 0.2 1.6 1 4.2 3.2 3.8 0.1 0 0.4 0.5 0.6 0.4 0.8-0.4 1.6-0.1 2.4 0 0.6 0.1 0.9 0.6 0.5 1.2s-1.1 0.9-1.3 1.5c-0.3 0.6-0.9 0.9-1 1.6 -0.1 0.5 0.5 0.5 0.7 0.8s0.1 0.3 0.1 0.7c0 0 7.7-4.5 12.9-17.7C109.6 86.6 108.2 86.2 108.7 85.3z"/>
  <path class="st3" d="M43.1 89.9c0 0-27.1 33.7 12 16.6l-0.5-0.5c0 0-33.1 13.9-12.2-15.3"/>
  <path class="st3" d="M98.8 49.2c40.2-15.8 11.8 17.5 11.8 17.5l-0.3-1.2c23.4-30.1-10.7-15.6-10.7-15.6L98.8 49.2 98.8 49.2z"/>
  <path class="st1" d="M60.3 69c0-0.3 0.1-0.6 0.2-0.6s0.2 0.3 0.2 0.6 -0.1 0.6-0.2 0.6S60.3 69.3 60.3 69L60.3 69z"/>
  <path class="st1" d="M60.6 70.7c0-0.2 0.1-0.3 0.2-0.3s0.2 0.1 0.2 0.3S60.9 71 60.8 71 60.6 70.8 60.6 70.7L60.6 70.7z"/>
  <path class="st1" d="M60.7 71.9c0-0.2 0.1-0.3 0.2-0.3s0.2 0.1 0.2 0.3c0 0.1-0.1 0.3-0.2 0.3C60.8 72.2 60.7 72.1 60.7 71.9L60.7 71.9z"/>
  <path class="st4" d="M55.7 106.2c22.7-9.8 37.2-22.2 53.8-38.5l-0.4-1.1c-16.1 16.5-31.4 29.2-54 39L55.7 106.2 55.7 106.2z"/>
  <path class="st1" d="M105.9 59.6l-2.6-4 -2.2-2.4C96.3 48.1 88.8 42.9 77.6 42c0 0-13.3-2.1-27.1 10.6h-0.8c0.1 0.3-0.4 0.3-0.5 0.6 -0.1 0.4-0.2 1 0 1.2 0.5 0.5 1.4-0.1 1.8-0.7 0.3-0.4 1.1-0.5 1.5 0 0.8 1-0.4 2-0.9 2.7 -0.4 0.5-1.2 0.1-1.9 0.1 0.2 0.9-0.6 2 0.4 2.5 0-0.1 0-0.2 0.1-0.2s0.3 0 0.4 0c0.6-0.5 1.4-0.9 2.1-0.5 0.4 0.3 0.8 0.6 0.8 1.1 0.3-0.1 0.3 0.3 0.5 0.3 -0.1-0.4 0.3-0.6 0.5-0.7 0.6-0.5 1.6 0 2.3-0.3 0.2-0.1 0.5-0.4 0.5-0.7 0-1.1-0.2-2.4-0.5-4.6h0.4c0.8-1.1 0.3-2.9 1.8-3.4 1.4-0.4 2.6-0.6 3.8-1.3 0.1-0.1 0.4 0.2 0.6 0.1 0.7-0.4 1.4-0.8 2-1.4 0-0.1 0.2-0.3-0.1-0.2 0.7-0.6 1.5-0.7 2.3-1.2 1-0.7 2.1-1.1 3.2-1.4 2.8-0.7 4.9 1.3 7.1 2.8 0.7 0.5 1.6 0.3 2.4 0.1 0-0.1 0-0.2 0.1-0.3 0.8-0.3 1.6 0.1 2.2 0.6 0.3 0.3 1.2 0.1 1.4-0.3 0.1-0.3 0.1-0.9-0.2-1.3 -0.4-0.5-0.8-0.8-0.6-1.5 -0.1 0-0.3 0-0.4 0 -0.3 0.2-0.4 0.6-0.6 0.8 -0.7 0.7-2 0.2-2.5-0.5 -0.3-0.4-0.2-1.6 0.7-1.4 0.5 0.2 1 0.4 1.6 0.6 0.2 0.1 0.4 0.1 0.7 0 0.4-0.2 0.8 0.2 1.2 0l0 0 0.1 0.2c0.1-0.1 0.2-0.2 0.1-0.2 0.4 0.1 0.8 0.3 1 0.5 0.5 0.8 0.1 1.9 0.6 2.8 0 0.1 0.2 0.2 0.3 0.3 0.3-0.5 0.6-1.4 1.3-1 0.8 0.4 1.4 1 2.2 1.5 0.2 0.1 0.5 0 0.7 0.1 0.5 0.3 0.8 0.7 1.3 1.1 0.2 0.2 0.6 0.5 0.9 0.5 0.8 0.1 1.3 0.5 1.3 1.1 0.8 0.1 0.9 0.7 1.2 1.3 0.2 0.4 0.6 0.6 1 0.8 0.2 0.1 0.5 0.2 0.6-0.1 0.1-0.4-0.1-1-0.3-1.2 -0.9-1.1-1.7-2.1-2.8-3 -0.2-0.2-0.2-0.6-0.3-0.9 0.2 0 0.4-0.1 0.5 0 0.6 0.6 1.2 1 1.8 1.4 1 0.6 1.7 1.4 2.1 2.4 0.2 0.4 0.2 0.8 0.3 1.2 0.1 0.5 0.1 0.9 0.2 1.4 0.2 0.7 0.6 1.3 1.2 1.8 0.1 0.1 0.1 0.4 0.2 0.5 0.3 0.4 0.6 0.6 0.9 0.9 0.1 0.2 0.1 0.4 0.3 0.5 0.4 0.4 0.7 0.9 1.2 1.1 0.2 0.1 0.4 0.2 0.4 0.3 0 0.4-0.1 0.8 0.1 1.1 0.2 0.3 0.5 0.5 0.7 0.8 -0.1 0.6 0.3 0.4 0.8 1.1 0.5 0.2 0.6 0.7 1.2 0.8 0.1 0 0.2 0.1 0.2 0.2l0 0c0.3 0.3 0.8 0.5 0.8 0.5 0.1 0 0.3-0.2 0.4-0.3 0.5-0.2 1 0.4 1.6 0.4C108.6 64.1 105.9 59.6 105.9 59.6z"/>
  <path class="st1" d="M85.6 81.5c0.2 0 0.4 0 0.4 0.3 0 0.1-0.2 0-0.2 0.1C85.7 82 85.7 82 85.6 82 85.5 81.8 85.5 81.7 85.6 81.5c0 0 0.1 0 0.2 0"/>
  <path class="st1" d="M34.5 125.1c-0.5-0.4-0.8-0.6-1-0.6s-0.5 0.2-0.9 0.6l-3.8 3.9c-0.3 0.3-0.5 0.6-0.4 0.8 0 0.2 0.2 0.5 0.6 0.9l-0.2 0.2 -5.8-5.6 1.2-1.3 0.3 0.3c-0.3 0.5-0.4 0.9-0.3 1.2 0.1 0.3 0.4 0.8 1 1.3l1.5 1.4c0.1 0.1 0.3 0.2 0.3 0.2 0.1 0 0.2-0.1 0.3-0.2l1.9-2 -1.6-1.5c-0.5-0.4-0.8-0.7-1.1-0.7 -0.2 0-0.6 0.1-1 0.4l-0.3-0.2 2-2.1 0.3 0.2c-0.3 0.4-0.4 0.8-0.4 1s0.3 0.6 0.7 1l1.6 1.5 1.9-2c0.3-0.3 0.5-0.6 0.4-0.8 0-0.2-0.2-0.5-0.6-1l0.2-0.2 3 2.9L34.5 125.1 34.5 125.1z"/>
  <path class="st1" d="M27.7 118.4c-0.4-0.4-0.6-0.7-0.8-0.7 -0.2-0.1-0.5 0-0.9 0.3l-4.5 3.3c-0.4 0.3-0.5 0.5-0.6 0.7 0 0.2 0.1 0.6 0.4 1l-0.2 0.1 -2.5-3.5 0.2-0.1c0.3 0.4 0.6 0.7 0.8 0.8 0.2 0.1 0.5 0 0.8-0.2l4.9-3.6c0.1-0.1 0.2-0.2 0.2-0.3 0-0.1 0-0.2-0.1-0.4 -0.1-0.1-0.1-0.2-0.2-0.3 -0.1-0.1-0.2-0.3-0.4-0.6 -0.8-1.1-1.4-1.8-1.8-2 -0.4-0.3-1.1-0.4-1.9-0.3l-0.2-0.3 2.2-0.7 4.8 6.6L27.7 118.4 27.7 118.4z"/>
  <path class="st1" d="M19.7 108.3c0.3-0.8 0.2-1.7-0.2-2.5 -0.4-0.8-1-1.3-1.8-1.6 -0.8-0.3-1.9-0.2-3.1 0.4s-2 1.3-2.3 2.2c-0.3 0.8-0.2 1.7 0.2 2.4 0.4 0.8 1 1.4 1.9 1.7 0.8 0.3 1.9 0.1 3-0.4C18.6 109.8 19.4 109.1 19.7 108.3L19.7 108.3zM14.6 112c-1.1-0.5-1.9-1.4-2.5-2.6s-0.8-2.4-0.5-3.6c0.3-1.3 1-2.2 2.2-2.8 1.2-0.6 2.4-0.6 3.6 0 1.1 0.5 1.9 1.4 2.5 2.6 0.6 1.3 0.8 2.5 0.5 3.7s-1 2.1-2.2 2.7C17 112.5 15.8 112.5 14.6 112L14.6 112z"/>
  <path class="st1" d="M11.1 96.5c-0.5-0.7-1.1-0.9-1.8-0.7 -0.7 0.2-1.1 0.7-1.1 1.5 0 0.4 0.1 0.9 0.2 1.5 0.1 0.4 0.2 0.6 0.3 0.7 0.1 0.1 0.2 0.1 0.4 0l3-0.9C11.7 97.6 11.4 96.9 11.1 96.5L11.1 96.5zM16.8 100.1c-0.2-0.5-0.4-0.9-0.6-1s-0.5-0.1-1 0.1l-5.2 1.6c-0.4 0.1-0.7 0.3-0.8 0.5 -0.1 0.2-0.1 0.5 0.1 1.1l-0.2 0.1 -1.2-4c-0.3-0.8-0.4-1.6-0.4-2.2 0-1.2 0.5-1.9 1.4-2.1 0.6-0.2 1.1-0.1 1.6 0.3s0.9 0.9 1.2 1.7l2.1-3.9c0.1-0.2 0.2-0.5 0.2-0.7s0-0.5-0.1-0.8l0.2-0.1 0.7 2.3 -2.6 4.6 0.3 0.8 2.4-0.7c0.4-0.1 0.7-0.3 0.8-0.5 0.1-0.2 0-0.6-0.1-1.1l0.2-0.1 1.2 4L16.8 100.1 16.8 100.1z"/>
  <path class="st1" d="M13.9 89.4c-0.1-0.6-0.3-1-0.4-1.1 -0.1-0.2-0.5-0.2-0.9-0.1l-5.5 0.9c-0.5 0.1-0.7 0.2-0.8 0.4 -0.1 0.2-0.1 0.6-0.1 1.2H6l-0.7-4.4h0.2c0.1 0.6 0.3 1 0.4 1.1 0.2 0.2 0.5 0.2 0.9 0.1l5.5-0.9c0.5-0.1 0.8-0.2 0.9-0.4 0.1-0.2 0.1-0.6 0-1.2h0.2l0.7 4.4H13.9L13.9 89.4z"/>
  <path class="st1" d="M12.4 80.4c0.1-0.1 0.1-0.4 0.1-0.8 0-1.2-0.2-2.2-0.6-2.9 -0.6-1.2-1.6-1.7-3.1-1.7 -1.3 0-2.3 0.5-2.9 1.5 -0.5 0.8-0.8 1.9-0.8 3.3 0 0.3 0 0.6 0.1 0.7 0.1 0.1 0.2 0.2 0.4 0.2l6.4-0.1C12.2 80.6 12.3 80.6 12.4 80.4L12.4 80.4zM12.8 83.5c-0.1-0.5-0.1-0.9-0.3-1.1 -0.1-0.2-0.4-0.2-0.9-0.2L6 82.3c-0.5 0-0.8 0.1-0.9 0.3 -0.1 0.2-0.2 0.5-0.2 1.1H4.7l-0.1-4.1c0-1.4 0.1-2.5 0.5-3.5 0.6-1.7 1.8-2.6 3.6-2.6 0.6 0 1.2 0.1 1.8 0.4 0.6 0.3 1.1 0.8 1.5 1.4 0.3 0.4 0.4 0.8 0.6 1.2 0.2 0.8 0.4 1.7 0.4 2.8l0.1 4.2L12.8 83.5 12.8 83.5z"/>
  <path class="st1" d="M10.6 66.2l-3.7 1.2 3.2 2.2L10.6 66.2 10.6 66.2zM12.9 73.1h-0.2c0-0.4-0.1-0.7-0.2-0.9C12.3 72 11.8 71.6 11 71l-5.7-4v-0.3l7.6-2.7c0.5-0.2 0.8-0.3 1-0.5 0.1-0.1 0.2-0.4 0.3-0.7h0.2l-0.5 3.8h-0.2c0-0.4 0-0.7 0-0.9 0-0.1-0.1-0.2-0.3-0.2 -0.1 0-0.2 0-0.3 0 -0.2 0-0.3 0.1-0.5 0.1l-1.3 0.5L10.8 70c0.8 0.5 1.2 0.8 1.4 0.9 0.2 0.1 0.3 0.2 0.4 0.2 0.2 0 0.4-0.1 0.5-0.2 0.1-0.1 0.1-0.4 0.2-0.7h0.2L12.9 73.1 12.9 73.1z"/>
  <path class="st1" d="M16.3 56.2c0.2-0.6 0.3-1 0.2-1.2 0-0.2-0.3-0.4-0.7-0.6l-5.2-2.1c-0.4-0.2-0.7-0.2-0.9-0.1 -0.2 0.1-0.4 0.5-0.7 1l-0.2-0.1 1.7-4.1 0.2 0.1c-0.2 0.6-0.3 1-0.2 1.2 0.1 0.2 0.3 0.4 0.7 0.6l5.2 2.1c0.5 0.2 0.8 0.2 0.9 0.1 0.2-0.1 0.4-0.5 0.7-1l0.2 0.1 -1.7 4.1L16.3 56.2 16.3 56.2z"/>
  <path class="st1" d="M18.4 50.7c0.3-0.6 0.3-1 0.3-1.2 -0.1-0.2-0.4-0.5-1-0.8L12.9 46l-0.3 0.1c-0.3 0.1-0.5 0.2-0.6 0.3s-0.3 0.3-0.4 0.6l-0.2-0.1 1.3-2.3 8.1-2.1 -3.7-2c-0.6-0.3-1.1-0.4-1.4-0.3 -0.2 0.1-0.4 0.3-0.7 0.8l-0.2-0.1 1.7-3.1 0.2 0.1c-0.2 0.5-0.3 0.9-0.3 1.2 0.1 0.3 0.4 0.5 1 0.9l5.8 3.2 -0.1 0.2 -9.3 2.5 4.3 2.4c0.6 0.3 1.1 0.4 1.4 0.3 0.2-0.1 0.4-0.3 0.8-0.8l0.2 0.1L18.8 51 18.4 50.7 18.4 50.7z"/>
  <path class="st1" d="M23.1 38.6c0.6 0.2 1.1 0.2 1.6 0.2 0.8-0.1 1.5-0.5 2.1-1.2 0.3-0.4 0.5-0.8 0.5-1.2s-0.1-0.8-0.5-1.1C26.5 35 26.1 35 25.6 35c-0.3 0.1-0.8 0.3-1.6 0.6l-1.3 0.6c-0.4 0.2-0.8 0.3-1.1 0.3 -0.6 0.1-1.1 0-1.4-0.3 -0.5-0.4-0.7-0.9-0.8-1.6 0-0.7 0.3-1.3 0.8-2 0.2-0.3 0.5-0.5 0.9-0.8 0.4-0.3 0.6-0.5 0.7-0.5 0.1-0.1 0.2-0.3 0.2-0.4 0-0.1-0.1-0.2-0.1-0.3l0.2-0.2 2.3 1.4 -0.2 0.3c-0.8-0.3-1.5-0.4-2.1-0.1 -0.6 0.2-1 0.5-1.4 0.9 -0.3 0.3-0.4 0.7-0.4 1 0 0.4 0.1 0.7 0.4 0.9s0.5 0.3 0.9 0.2c0.3 0 0.8-0.2 1.3-0.4l1.4-0.6c0.9-0.4 1.5-0.6 2-0.6s0.9 0.1 1.3 0.4c0.5 0.4 0.7 1 0.7 1.7S28 37 27.4 37.7c-0.3 0.4-0.7 0.7-1.1 1s-0.7 0.5-0.7 0.5c-0.1 0.1-0.1 0.3-0.1 0.4 0 0.1 0.1 0.2 0.2 0.3l-0.2 0.3 -2.4-1.3L23.1 38.6 23.1 38.6z"/>
  <path class="st1" d="M24.8 27.5l6.3-5.7 1.5 1.5 -0.3 0.2c-0.6-0.4-1-0.6-1.4-0.5 -0.3 0-0.8 0.3-1.5 0.9l-0.6 0.6 4.3 4.8c0.3 0.4 0.6 0.5 0.8 0.5 0.2 0 0.6-0.2 1-0.6l0.2 0.2 -3.3 2.9 -0.2-0.2c0.4-0.5 0.7-0.8 0.7-1s-0.1-0.5-0.5-0.9l-4.2-4.7L27 26.1c-0.6 0.6-1 1-1.1 1.4 -0.1 0.3 0 0.8 0.4 1.4L26 29.1 24.8 27.5 24.8 27.5z"/>
  <path class="st1" d="M37.9 26.9c0.5-0.4 0.8-0.7 0.8-0.9 0.1-0.2 0-0.5-0.3-0.9l-3.2-4.6c-0.3-0.4-0.5-0.6-0.7-0.6s-0.6 0.2-1.1 0.5l-0.1-0.2 3.7-2.6 0.1 0.2c-0.5 0.4-0.8 0.7-0.8 0.9 -0.1 0.2 0 0.5 0.3 0.9l3.2 4.6c0.3 0.4 0.5 0.6 0.7 0.6s0.6-0.2 1.1-0.5l0.1 0.2L38 27.1 37.9 26.9 37.9 26.9z"/>
  <path class="st1" d="M39.1 16.3l7.5-4 1.1 1.8 -0.3 0.2c-0.5-0.5-0.9-0.8-1.2-0.8 -0.3-0.1-0.9 0.1-1.7 0.5l-0.7 0.4 3 5.7c0.2 0.4 0.5 0.7 0.7 0.7s0.6-0.1 1.2-0.4l0.1 0.2 -3.9 2.1 -0.1-0.2c0.5-0.3 0.9-0.6 0.9-0.8 0.1-0.2 0-0.5-0.3-1l-3-5.6 -0.7 0.4c-0.7 0.4-1.2 0.7-1.4 1.1 -0.2 0.3-0.2 0.8 0 1.5L40 18.3 39.1 16.3 39.1 16.3z"/>
  <path class="st1" d="M53.3 9.9l0.1 0.2c-0.5 0.2-0.9 0.4-1 0.6 -0.1 0.2-0.1 0.5 0 0.9l1.2 3.8c0.2 0.6 0.5 1.1 0.8 1.4 0.6 0.5 1.4 0.6 2.5 0.2 1.2-0.4 1.8-1 2-1.7 0.1-0.4 0-1-0.2-1.8l-1-3.1c-0.2-0.7-0.4-1-0.7-1.1 -0.2-0.1-0.6-0.1-1.2 0l-0.1-0.2L59 8l0.1 0.2c-0.5 0.2-0.9 0.5-1 0.7s-0.1 0.7 0.1 1.3l1 3.1c0.3 0.8 0.3 1.5 0.2 2.1 -0.3 1-1.2 1.8-2.8 2.3 -1.6 0.5-2.7 0.4-3.6-0.2 -0.4-0.4-0.8-0.9-1-1.6l-1.2-3.7c-0.1-0.4-0.3-0.7-0.5-0.8s-0.6 0-1.1 0.1l-0.1-0.2L53.3 9.9 53.3 9.9z"/>
  <path class="st1" d="M62.2 7.5l8.4-1.2L71 8.4l-0.4 0.1c-0.3-0.6-0.6-1-0.9-1.2 -0.3-0.2-0.9-0.2-1.7-0.1l-0.8 0.1 0.9 6.4c0.1 0.5 0.2 0.8 0.4 0.9 0.2 0.1 0.6 0.1 1.2 0.1v0.2l-4.4 0.6v-0.2c0.6-0.1 1-0.3 1.1-0.4 0.1-0.2 0.2-0.5 0.1-1l-0.9-6.2 -0.8 0.1c-0.8 0.1-1.4 0.3-1.7 0.5 -0.3 0.2-0.4 0.7-0.5 1.4h-0.4L62.2 7.5 62.2 7.5z"/>
  <path class="st1" d="M73.2 14.3c0.6 0 0.9-0.1 1.1-0.2 0.2-0.1 0.3-0.4 0.3-0.9l0.2-5.6c0-0.5-0.1-0.7-0.2-0.9 -0.2-0.1-0.5-0.2-1.1-0.3V6.2l8 0.3v1.8h-0.4c-0.1-0.6-0.3-0.9-0.5-1.1 -0.3-0.2-0.8-0.3-1.7-0.3l-2-0.1c-0.2 0-0.4 0-0.4 0.1s-0.1 0.2-0.1 0.3L76.3 10l2.3 0.1c0.6 0 1.1 0 1.2-0.2 0.2-0.2 0.3-0.5 0.5-1h0.4l-0.1 2.9h-0.4c-0.1-0.5-0.2-0.8-0.4-1s-0.6-0.3-1.2-0.3l-2.3-0.1 -0.1 3.1c0 0.2 0.1 0.4 0.3 0.4 0.2 0.1 0.8 0.1 1.7 0.1 1 0 1.8 0 2.3-0.2s0.9-0.6 1.4-1.3h0.4l-0.8 2.1 -8.1-0.3L73.2 14.3 73.2 14.3z"/>
  <path class="st1" d="M92.8 15.7c0.4 0.8 1 1.3 1.9 1.6 0.8 0.3 1.7 0.2 2.4-0.2 0.8-0.4 1.4-1.2 1.8-2.5 0.4-1.3 0.4-2.3 0-3.1s-1-1.3-1.9-1.6 -1.7-0.2-2.5 0.2 -1.4 1.2-1.8 2.5C92.4 13.8 92.4 14.9 92.8 15.7L92.8 15.7zM93.6 9.5c1.1-0.4 2.3-0.4 3.6 0s2.3 1.1 2.9 2.1c0.7 1.1 0.9 2.3 0.4 3.5 -0.4 1.3-1.3 2.2-2.5 2.6 -1.1 0.4-2.3 0.4-3.5 0 -1.3-0.4-2.3-1.2-3-2.2 -0.7-1.1-0.8-2.2-0.4-3.4C91.6 10.8 92.4 9.9 93.6 9.5L93.6 9.5z"/>
  <path class="st1" d="M100.2 19.3c0.6 0.2 0.9 0.3 1.1 0.2 0.2-0.1 0.4-0.3 0.6-0.8l2.4-4.9c0.2-0.4 0.2-0.7 0.2-0.9 -0.1-0.2-0.4-0.4-0.9-0.7l0.1-0.2 7.2 3.5 -0.7 1.6 -0.4-0.2c0.2-0.6 0.1-1 0-1.2 -0.2-0.3-0.7-0.6-1.4-1l-1.9-0.9c-0.2-0.1-0.3-0.1-0.4-0.1 -0.1 0-0.2 0.1-0.2 0.3l-1.2 2.5 2 1c0.6 0.3 1 0.4 1.2 0.3 0.2-0.1 0.5-0.3 0.8-0.7l0.3 0.2 -1.3 2.6 -0.3-0.2c0.1-0.5 0.1-0.8 0-1.1 -0.1-0.2-0.4-0.5-1-0.8l-2-1 -1.2 2.5c-0.2 0.4-0.3 0.7-0.2 0.9s0.4 0.4 0.9 0.7l-0.1 0.2 -3.8-1.9L100.2 19.3 100.2 19.3z"/>
  <path class="st1" d="M119.1 20.9l6.3 5.7 -1.4 1.6 -0.3-0.2c0.3-0.6 0.4-1.1 0.4-1.4 -0.1-0.3-0.4-0.8-1.1-1.4l-0.6-0.6 -4.3 4.8c-0.3 0.4-0.5 0.6-0.4 0.9 0.1 0.2 0.3 0.5 0.7 1l-0.2 0.2 -3.3-2.9 0.2-0.2c0.5 0.4 0.9 0.6 1.1 0.6 0.2 0 0.5-0.2 0.9-0.6l4.2-4.7 -0.6-0.6c-0.6-0.6-1.1-0.9-1.5-0.9s-0.8 0.1-1.4 0.5l-0.3-0.2L119.1 20.9 119.1 20.9z"/>
  <path class="st1" d="M121.2 33.7c0.4 0.4 0.7 0.6 0.9 0.7 0.2 0.1 0.5-0.1 0.8-0.4l4.3-3.6c0.3-0.3 0.5-0.5 0.5-0.7s-0.2-0.5-0.5-1l0.2-0.2 5.2 6.1 -1.3 1.2 -0.2-0.3c0.3-0.5 0.5-0.8 0.5-1.1s-0.3-0.8-0.9-1.5l-1.3-1.6c-0.1-0.2-0.3-0.3-0.3-0.3 -0.1 0-0.2 0.1-0.3 0.2l-2.1 1.8 1.5 1.8c0.4 0.5 0.7 0.8 1 0.8 0.2 0 0.6-0.1 1-0.3l0.2 0.3 -2.2 1.9 -0.2-0.3c0.3-0.4 0.5-0.7 0.5-1 0-0.2-0.2-0.6-0.6-1.1l-1.5-1.8 -2.4 2c-0.2 0.2-0.2 0.3-0.2 0.5 0.1 0.2 0.4 0.6 1 1.3 0.7 0.8 1.2 1.3 1.7 1.6s1.1 0.3 1.9 0.1l0.3 0.3 -2.1 0.8 -5.2-6.2H121.2L121.2 33.7z"/>
  <path class="st1" d="M138.2 43.6c0.2 0.6 0.3 0.9 0.3 0.9 0.1 0.1 0.2 0.2 0.3 0.3s0.3 0.1 0.4 0.1l0.2 0.3 -2.3 1.6 -0.2-0.3c0.4-0.5 0.6-0.9 0.8-1.4 0.2-0.9 0.1-1.7-0.5-2.6 -0.5-0.9-1.3-1.5-2.2-1.7s-1.9 0-3 0.6c-1 0.6-1.6 1.3-1.8 2.3s0 1.9 0.5 2.8c0.4 0.7 0.9 1.2 1.5 1.6 0.3 0.2 0.8 0.5 1.3 0.7l-0.1 0.4c-0.5-0.1-1-0.3-1.4-0.6 -0.8-0.5-1.5-1.2-2-2 -0.8-1.4-1.1-2.7-0.9-4 0.2-1.2 0.9-2.1 1.9-2.7 1.1-0.6 2.2-0.8 3.4-0.4 1.3 0.4 2.3 1.3 3.1 2.6C137.8 42.5 138 43 138.2 43.6L138.2 43.6z"/>
  <path class="st1" d="M133.3 51.5c0.2 0.5 0.4 0.9 0.6 1 0.2 0.1 0.5 0.1 1-0.1l5.1-1.8c0.4-0.1 0.7-0.3 0.7-0.5 0.1-0.2 0-0.6-0.1-1.1l0.2-0.1 1.4 4L142 53c-0.2-0.5-0.4-0.8-0.6-0.9 -0.2-0.1-0.5-0.1-0.9 0l-2.3 0.8 1.5 4.3 2.3-0.8c0.4-0.1 0.7-0.3 0.8-0.5s0-0.6-0.1-1.1l0.2-0.1 1.4 4 -0.2 0.1c-0.2-0.5-0.4-0.8-0.6-0.9 -0.2-0.1-0.5-0.1-0.9 0.1l-5.3 1.8c-0.4 0.1-0.7 0.3-0.8 0.5s0 0.6 0.1 1.1l-0.2 0.1 -1.4-4 0.2-0.1c0.2 0.5 0.4 0.9 0.6 1 0.2 0.1 0.5 0.1 1-0.1l2.3-0.8 -1.5-4.3 -2.4 0.8c-0.4 0.1-0.7 0.3-0.8 0.5s0 0.6 0.1 1.1l-0.2 0.1 -1.4-4L133.3 51.5 133.3 51.5z"/>
  <path class="st1" d="M137.2 62.8c0.1 0.6 0.3 1 0.5 1.1 0.2 0.2 0.6 0.2 1.3 0.1l5.5-0.8 0.2-0.2c0.2-0.2 0.3-0.5 0.3-0.6 0-0.2 0-0.4 0-0.7h0.2l0.4 2.6 -5.2 6.6 4.2-0.6c0.7-0.1 1.1-0.3 1.3-0.5 0.1-0.2 0.1-0.5 0.1-1.1h0.2l0.5 3.5h-0.2c-0.1-0.6-0.3-0.9-0.5-1.1 -0.2-0.2-0.6-0.2-1.3-0.1l-6.6 0.9v-0.3L144 64l-4.9 0.7c-0.7 0.1-1.1 0.3-1.3 0.5 -0.1 0.2-0.2 0.5-0.1 1.1h-0.2l-0.5-3.5L137.2 62.8 137.2 62.8z"/>
  <path class="st1" d="M139.6 77.7c-0.7 0.6-1 1.4-1 2.3 0 0.9 0.2 1.7 0.8 2.3 0.6 0.7 1.6 1 2.9 1.1 1.4 0 2.4-0.2 3-0.9 0.6-0.6 1-1.4 1-2.2 0-0.9-0.3-1.7-0.9-2.3 -0.6-0.6-1.6-1-2.9-1C141.3 76.8 140.3 77.1 139.6 77.7L139.6 77.7zM145.8 76.8c0.7 0.9 1 2.1 1 3.5s-0.5 2.5-1.2 3.4c-0.8 1-1.9 1.4-3.3 1.4 -1.4 0-2.4-0.6-3.2-1.7 -0.7-1-1-2.1-1-3.4 0-1.4 0.5-2.6 1.3-3.5s1.9-1.4 3.2-1.3C144 75.2 145.1 75.7 145.8 76.8L145.8 76.8z"/>
  <path class="st1" d="M138 86.7c-0.1 0.6-0.1 0.9 0 1.1s0.4 0.3 0.8 0.4l5.5 1.2c0.4 0.1 0.7 0.1 0.9-0.1 0.2-0.1 0.3-0.5 0.5-1h0.2l-0.9 4.2h-0.2c0.1-0.5 0.1-0.9 0-1.1s-0.3-0.4-0.7-0.4l-5.9-1.3c-0.1 0-0.2 0-0.3 0s-0.2 0.2-0.2 0.3c0 0.1-0.1 0.2-0.1 0.3 0 0.1-0.1 0.3-0.2 0.7 -0.3 1.3-0.4 2.2-0.3 2.7 0.1 0.5 0.4 1 1.1 1.6l-0.1 0.4 -2-1.2 1.7-7.9L138 86.7 138 86.7z"/>
  <path class="st1" d="M135.6 99.8c-0.8 0.3-1.4 0.9-1.7 1.8 -0.3 0.8-0.3 1.6 0 2.5 0.3 0.8 1.1 1.5 2.4 2 1.3 0.5 2.3 0.6 3.1 0.2s1.4-0.9 1.7-1.8c0.3-0.8 0.3-1.7 0-2.5 -0.4-0.8-1.1-1.5-2.4-2C137.4 99.6 136.4 99.5 135.6 99.8L135.6 99.8zM141.7 101.1c0.3 1.1 0.3 2.3-0.3 3.6 -0.5 1.3-1.3 2.2-2.3 2.8 -1.1 0.6-2.3 0.7-3.6 0.2s-2.1-1.4-2.4-2.7c-0.3-1.1-0.2-2.3 0.3-3.5 0.5-1.3 1.3-2.2 2.4-2.8 1.1-0.6 2.3-0.6 3.4-0.1C140.5 99 141.3 99.8 141.7 101.1L141.7 101.1z"/>
  <path class="st1" d="M134 117.9c-0.4 0.4-0.7 0.6-0.7 0.7 -0.1 0.2-0.2 0.3-0.2 0.4s0 0.2 0.1 0.4l-0.2 0.3 -2.3-1.3 0.2-0.3c0.7 0.1 1.2 0.1 1.7-0.1 0.8-0.2 1.4-0.7 1.9-1.5s0.7-1.7 0.6-2.6c-0.1-0.9-0.8-1.8-1.9-2.6 -1-0.6-1.9-0.8-2.9-0.6 -0.9 0.3-1.7 0.8-2.3 1.7 -0.1 0.2-0.2 0.3-0.3 0.6 -0.1 0.2-0.2 0.4-0.3 0.7 -0.1 0.4-0.2 0.6-0.2 0.7s0.1 0.2 0.2 0.3l1.7 1.1c0.4 0.3 0.7 0.4 0.9 0.3s0.4-0.3 0.8-0.8l0.2 0.1 -2.1 3.2 -0.2-0.1c0.2-0.3 0.3-0.6 0.3-0.7 0-0.2-0.2-0.5-0.5-0.7l-2.1-1.3c-0.1-0.1-0.1-0.6 0.2-1.4 0.3-0.9 0.6-1.6 1.1-2.3 0.8-1.2 1.8-2.1 2.9-2.5 1.3-0.5 2.5-0.4 3.6 0.3 1 0.6 1.6 1.6 1.8 2.8 0.2 1.3-0.1 2.7-1 4C134.8 117.1 134.4 117.5 134 117.9L134 117.9z"/>
  <path class="st1" d="M127.6 125.9l-0.2-0.2c0.3-0.2 0.4-0.5 0.5-0.6 0.1-0.2 0.1-0.3-0.1-0.4 0 0-0.1-0.1-0.2-0.1 -0.1 0-0.2-0.1-0.4-0.1l-3.6-0.3 0.5 3.5c0 0.1 0.1 0.3 0.1 0.3 0 0.1 0.1 0.1 0.1 0.2 0.1 0.1 0.3 0.1 0.5 0 0.1-0.1 0.3-0.2 0.5-0.5l0.2 0.2 -2.3 2.4 -0.2-0.2c0.2-0.2 0.3-0.5 0.4-0.8 0.1-0.4 0.1-1 0-1.7l-0.5-3.6 -1.8-1.7c-0.3-0.3-0.6-0.5-0.9-0.4 -0.2 0.1-0.6 0.3-1 0.8l-0.2-0.2 3.2-3.3 0.2 0.2c-0.5 0.5-0.7 0.9-0.7 1.1s0.2 0.5 0.6 0.9l1.6 1.5 3.1 0.3c1.1 0.1 1.8 0.1 2.1 0.1 0.4 0 0.7-0.2 1-0.5l0.2 0.2L127.6 125.9 127.6 125.9z"/>
  <polygon class="st1" points="49.1 136.8 49.1 136.8 47.1 138.7 44.2 137.4 44.2 137.4 45.9 140 43.9 141.9 43.9 142 47 141.5 48.7 144.1 48.7 144.1 48.8 141.3 51.9 140.9 51.9 140.9 48.9 139.5 "/>
  <path class="st1" d="M63.1 139.4C63.1 139.4 63.1 139.5 63.1 139.4l-1.5 7.3c-0.1 0.3 0 0.5 0.2 0.7 0.2 0.1 0.5 0.3 1.1 0.4v0.2l-4.1-0.9v-0.2c0.6 0.1 1 0.1 1.2 0s0.3-0.3 0.4-0.7l1.2-5.6c0-0.2 0-0.3 0-0.5 0-0.1-0.1-0.2-0.3-0.2 -0.1 0-0.3 0-0.5 0s-0.4 0-0.6 0.1v-0.2l2.9-0.6L63.1 139.4C63 139.4 63.1 139.4 63.1 139.4L63.1 139.4z"/>
  <path class="st1" d="M69.9 145.1c0.4-0.1 0.6-0.2 0.6-0.3 0 0 0-0.2 0.1-0.4 0-0.3 0.1-0.5 0.1-0.6 0.1-0.8 0-1.6-0.3-2.1 -0.3-0.6-0.8-0.9-1.4-0.9 -0.5 0-0.9 0.1-1.2 0.4 -0.3 0.3-0.5 0.9-0.6 1.6 -0.1 0.6 0 1.2 0.3 1.7 0.2 0.5 0.7 0.8 1.4 0.9C69.2 145.3 69.5 145.2 69.9 145.1L69.9 145.1zM71.5 141.6c0.5 0.8 0.8 1.6 0.7 2.5 -0.1 0.6-0.2 1.2-0.6 1.8 -0.3 0.6-0.8 1.2-1.4 1.6 -0.7 0.5-1.5 0.9-2.5 1.1 -0.5 0.1-1.2 0.2-2 0.2l-0.1-0.3c0.5-0.1 1-0.1 1.3-0.2 0.6-0.1 1.1-0.3 1.5-0.6 0.6-0.4 1-0.8 1.4-1.3 0.4-0.5 0.6-0.9 0.7-1.2l-0.3 0.1c-0.4 0.2-0.8 0.3-1.3 0.4 -0.3 0-0.5 0-0.7 0 -0.8-0.1-1.5-0.4-1.9-0.9s-0.6-1.1-0.6-1.8c0.1-0.9 0.4-1.6 1.1-2.1 0.6-0.5 1.4-0.7 2.3-0.7C70.2 140.4 71 140.8 71.5 141.6L71.5 141.6z"/>
  <path class="st1" d="M75.7 148.4c0.5 0.3 0.8 0.4 1.1 0.4 0.6 0 1.1-0.2 1.5-0.7 0.4-0.4 0.6-0.9 0.6-1.5 0-1.1-0.7-1.8-2.1-2.3 -0.8-0.2-1.5-0.4-2.1-0.4 -0.1 0-0.2 0-0.2 0s-0.1 0-0.1-0.1v-0.1c0 0 0 0 0-0.1l1.6-3 3.2-0.1c0.2 0 0.3 0 0.4-0.1 0.1 0 0.2-0.1 0.3-0.3l0.1 0.1 -0.6 1.1c0 0-0.1 0.1-0.2 0.1 -0.1 0-0.2 0-0.3 0l-2.9 0.1 -0.6 1.1c0.8 0.1 1.4 0.2 1.8 0.3 0.6 0.2 1.1 0.4 1.6 0.7 0.4 0.3 0.6 0.6 0.8 1s0.3 0.7 0.3 1.1c0 0.9-0.4 1.7-1.1 2.3 -0.8 0.6-1.7 0.9-2.9 1 -0.5 0-0.9 0-1.2-0.1 -0.5-0.1-0.7-0.3-0.7-0.7 0-0.1 0-0.2 0.1-0.3 0.1-0.1 0.3-0.1 0.5-0.1C74.9 148 75.3 148.1 75.7 148.4L75.7 148.4z"/>
  <path class="st1" d="M87.4 147.5c0.3-0.3 0.3-0.6 0.3-1 -0.1-0.4-0.3-0.8-0.6-1s-1-0.6-2-1c-0.4 0.3-0.7 0.6-0.8 1s-0.2 0.7-0.1 1.1c0.1 0.6 0.3 1 0.7 1.3s0.9 0.4 1.4 0.3C86.8 148 87.2 147.8 87.4 147.5L87.4 147.5zM86.5 142.6c0.3-0.4 0.4-0.8 0.3-1.2 -0.1-0.4-0.2-0.7-0.6-0.9 -0.3-0.2-0.8-0.3-1.3-0.2 -0.4 0.1-0.8 0.2-1.1 0.5s-0.4 0.6-0.3 0.9c0.1 0.4 0.3 0.7 0.7 1s0.9 0.5 1.5 0.7C86.1 143.1 86.4 142.9 86.5 142.6L86.5 142.6zM83.2 143.5c-0.4-0.3-0.7-0.7-0.7-1.2 -0.1-0.5 0.1-1 0.6-1.5 0.5-0.4 1.2-0.7 2-0.8 0.8-0.1 1.4 0 1.9 0.3s0.8 0.7 0.9 1.1c0.1 0.5-0.1 0.9-0.5 1.4 -0.2 0.3-0.6 0.6-1.2 0.9 0.9 0.4 1.6 0.8 2 1.1 0.4 0.3 0.7 0.7 0.7 1.3 0.1 0.6-0.1 1.1-0.6 1.6s-1.1 0.8-2 0.9c-0.8 0.1-1.5 0-2.1-0.3s-1-0.7-1.1-1.3c-0.1-0.5 0.1-1 0.4-1.4 0.2-0.3 0.6-0.7 1.2-1.1C83.9 144 83.4 143.7 83.2 143.5L83.2 143.5z"/>
  <polygon class="st1" points="98.1 138.5 98.1 138.5 98.1 141.2 95.1 142.3 95.1 142.4 98.2 142.9 98.1 145.7 98.1 145.7 100 143.3 103 143.9 103 143.8 101.1 141.8 103 139.3 103 139.3 99.9 140.5 "/>
  <path d="M200.4 53.5h-6.1c-0.9 2.9-1.9 6.1-3 9.7 -1.1 3.6-2.1 7.2-2.9 10.9h5.7c2.4-0.1 4-0.7 4.8-1.9 0.8-1.2 1.4-2.4 1.7-3.6 0.3-1.2 1-1.8 2-1.9 0.5 0 0.7 0.3 0.8 0.9 0 0.5-0.5 1.8-1.2 3.8 -0.8 2-1.7 5.1-2.6 9.3 -0.3 1.8-0.6 3.1-0.8 4 -0.2 0.9-0.7 1.4-1.4 1.4 -0.6 0-0.9-0.6-0.9-1.8 0.1-1.1 0.2-2.7 0.3-4.8 0-1-0.2-1.7-0.7-2.1 -0.5-0.4-1.5-0.6-2.9-0.6h-5.4c-0.2 0.9-0.6 2.3-1.2 4.5 -0.6 2.1-1.3 4.5-2 7s-1.4 4.8-1.9 6.8 -0.8 3.3-0.8 4c0 0.8 0.3 1.3 0.8 1.5 0.5 0.3 1.1 0.4 1.7 0.5 0.7 0.1 1.2 0.2 1.7 0.4 0.5 0.2 0.8 0.6 0.8 1.1 0.1 0.7-0.5 1.1-1.8 1 -0.6 0-1.4-0.1-2.3-0.2 -0.9-0.1-2.5-0.2-4.8-0.2s-4.1 0.1-5.4 0.2c-1.3 0.1-2.3 0.2-3 0.2 -1-0.1-1.6-0.4-1.5-1.1 0-0.6 0.3-1 0.8-1.2 0.5-0.1 1.1-0.2 1.9-0.3 0.7-0.1 1.4-0.3 2-0.7 0.6-0.4 1.1-1.1 1.4-2 1.2-4.8 2.5-9.7 3.8-14.6 1.4-4.9 2.7-9.4 3.9-13.6 1.2-4.2 2.2-7.6 3-10.3s1.2-4.3 1.2-4.7c0-0.9-0.3-1.4-0.7-1.7s-1-0.4-1.6-0.5 -1.1-0.2-1.5-0.3c-0.5-0.2-0.7-0.4-0.7-0.8 -0.1-0.9 0.5-1.4 1.6-1.3 1.3 0.1 4.9 0.2 10.7 0.3 3.6 0 6.7-0.1 9.4-0.2 2.7-0.1 4.7-0.2 6.2-0.2 0.9 0 1.4 0.3 1.3 0.8 0 0.3-0.2 1.1-0.7 2.4 -0.4 1.2-0.9 2.6-1.4 4.1s-0.9 2.8-1.2 4c-0.3 1.5-0.6 2.4-0.8 2.9 -0.2 0.4-0.4 0.6-0.7 0.6 -0.7 0.1-1-0.3-1-1.3V59c0-2.3-0.4-3.9-1.1-4.6C203 53.7 201.9 53.4 200.4 53.5L200.4 53.5z"/>
  <path d="M210.7 98.3c-0.1 0.8 0.3 1.2 1.1 1.2 0.6 0 1.3-0.6 2.1-1.6 0.8-1 1.7-2.2 2.7-3.7 1.2-2 2-3.4 2.3-4.1s0.6-1.1 1-1c0.5 0 0.8 0.3 0.8 0.8s-0.4 1.6-1.2 3.1c-0.8 1.6-1.8 3.3-3.1 5.1 -1.3 1.8-2.7 3.4-4.3 4.7 -1.6 1.3-3.2 2-4.7 2.1 -2.4 0-3.6-1.5-3.7-4.5 0-1.5 0.5-4 1.5-7.6 0.9-3.5 2.1-7.5 3.5-11.9s2.8-8.8 4.2-13.2c1.4-4.3 2.6-8.1 3.5-11.2 0.9-3.2 1.4-5.2 1.5-6.1 0-0.3 0-0.6-0.2-0.9 -0.1-0.3-0.6-0.4-1.4-0.4l-1.7-0.1c-1.1 0-1.5-0.3-1.4-0.9 0-0.5 0.2-0.9 0.7-1.1 0.5-0.2 1.2-0.2 2.3-0.2 1.6 0 3-0.1 4.3-0.3 1.8-0.4 3.2-0.8 4-1.3s1.4-0.8 1.8-0.8c0.5 0 0.7 0.3 0.8 0.8 0 0.1-0.1 0.5-0.4 1.3 -0.2 0.8-0.7 2.2-1.2 4 -1.5 4.8-3.1 9.8-4.8 14.9 -1.7 5.1-3.2 10-4.7 14.6s-2.7 8.6-3.6 11.8C211.2 94.9 210.7 97.1 210.7 98.3L210.7 98.3z"/>
  <path d="M230.1 94.8c0 2.8 0.5 4.8 1.6 6.1 1 1.2 2.5 1.8 4.3 1.8 2-0.1 3.9-1.1 5.6-3.1s3.2-4.5 4.5-7.6 2.3-6.1 3-9.3 1.1-5.9 1.1-8.3c0-2.8-0.5-4.8-1.5-6.1 -1-1.2-2.5-1.8-4.3-1.8 -2 0.1-3.9 1.1-5.6 3.1s-3.2 4.5-4.5 7.6c-1.3 3-2.3 6.1-3 9.3C230.5 89.6 230.1 92.4 230.1 94.8L230.1 94.8zM222.9 88.9c0-2.4 0.5-5.1 1.5-7.9 1-2.8 2.5-5.5 4.4-8s4.3-4.6 7-6.2c2.8-1.6 5.9-2.5 9.4-2.5 3.7 0 6.6 1.5 8.7 4.3 2.2 2.8 3.3 6.7 3.3 11.7 0 2.4-0.5 5.1-1.5 7.9 -1 2.8-2.5 5.5-4.4 8s-4.3 4.6-7 6.2c-2.8 1.6-5.9 2.5-9.4 2.5 -3.7 0-6.6-1.5-8.7-4.3C224.1 97.8 222.9 93.9 222.9 88.9L222.9 88.9z"/>
  <path d="M270.7 84.5l0.2 0.2c1.4-3.4 2.9-6.7 4.4-9.8s3.1-5.6 4.8-7.6c1.6-2 3.4-3 5.1-3.1 0.9 0 1.6 0.3 2.1 1s0.8 1.8 0.8 3.4c0 2.2-0.5 4.2-1.4 5.8s-2.1 2.5-3.5 2.6c-1.6-0.1-2.4-0.9-2.3-2.3 0.1-1 0.2-2 0.3-2.9 0-0.5-0.2-0.7-0.6-0.7 -0.6 0.1-1.6 1.2-2.8 3.3 -1.2 2.1-2.6 4.8-4 8 -1.5 3.2-2.9 6.6-4.3 10.1s-2.5 6.7-3.5 9.5c-0.1 0.5-0.3 0.9-0.5 1.1s-0.6 0.3-1.3 0.3h-4.1c-0.6 0-1-0.1-0.9-0.4 0-0.3 0.3-1.5 0.9-3.5s1.4-4.6 2.2-7.5c0.9-3 1.8-6 2.7-9 0.9-3.1 1.6-5.7 2.2-8s0.9-3.8 0.9-4.5c0-0.6-0.2-0.9-0.7-0.8 -0.4 0-1 0.5-1.6 1.3s-1.3 1.8-2 2.9c-1.1 1.8-1.9 3.1-2.3 3.7 -0.4 0.6-0.7 0.9-0.8 0.9 -0.5 0-0.7-0.3-0.8-0.9 0-0.4 0.4-1.3 1-2.7 0.7-1.4 1.6-2.8 2.7-4.5 1.1-1.6 2.4-3 3.8-4.2s2.8-1.8 4.3-1.9c2 0 2.9 0.9 2.9 2.9 -0.1 1.9-0.5 4.4-1.3 7.5C272.5 77.7 271.6 81 270.7 84.5L270.7 84.5z"/>
  <path d="M290.6 92.4l5.9-17.6c0.7-1.9 1.1-3.3 1.2-4.2 0-0.6-0.3-1-0.8-1 -0.4 0-0.9 0.3-1.5 0.8 -0.6 0.6-1.4 1.6-2.4 3 -1.3 1.9-2.2 3.3-2.5 4.1 -0.4 0.8-0.8 1.2-1.2 1.2 -0.5 0-0.8-0.3-0.8-0.8 0-0.6 0.4-1.6 1.2-3.1 0.8-1.4 1.8-3 3.1-4.6 1.3-1.6 2.7-3 4.3-4.1 1.6-1.2 3.2-1.8 4.8-1.8 0.9 0 1.6 0.3 2.2 0.8 0.6 0.6 0.9 1.5 0.9 2.8 0 1.2-0.5 3.3-1.4 6.2s-2 6.1-3.2 9.5 -2.3 6.5-3.2 9.3c-0.9 2.8-1.4 4.6-1.4 5.6 0 0.7 0.2 1 0.7 1 0.3 0.1 0.9-0.2 1.6-0.9 0.8-0.7 1.9-2.1 3.3-4.4s2.2-3.8 2.6-4.5c0.4-0.8 0.7-1.1 0.9-1.1 0.5 0 0.8 0.2 0.8 0.7s-0.4 1.6-1.2 3.2c-0.8 1.6-1.8 3.4-3.2 5.3 -1.3 1.9-2.8 3.6-4.5 5s-3.4 2.1-5.2 2.2c-1.8 0-2.7-1.2-2.8-3.8 0-1 0.2-2.3 0.5-3.9C289.7 95.6 290.1 94 290.6 92.4L290.6 92.4zM301.4 56.1c0.1-2 0.6-3.7 1.6-5.1 1-1.4 2.1-2.1 3.5-2.2 1.7 0 2.6 1.4 2.7 4.3 0 1.9-0.5 3.5-1.5 4.7 -0.9 1.2-2 1.9-3.2 1.9 -1 0-1.7-0.4-2.2-1.1C301.6 57.9 301.4 57.1 301.4 56.1L301.4 56.1z"/>
  <path d="M329.1 87.4h-0.2c-0.8 1.1-1.8 2.7-3 4.6s-2.6 3.8-4.2 5.8c-1.5 2-3.1 3.6-4.8 5 -1.7 1.4-3.3 2.1-5 2.1s-3-0.7-4.1-2c-1-1.3-1.6-3.3-1.6-6 0.1-5.4 1.3-10.6 3.8-15.5 2.4-4.9 5.5-9 9.4-12.2 3.8-3.2 7.8-4.8 12-4.9 1.7 0.1 3.1 0.4 4.2 1l2.9-9.3c0.5-1.5 0.7-2.6 0.9-3.4 0.1-0.8 0.2-1.4 0.2-1.9 0.1-0.6-0.1-1-0.4-1.4 -0.3-0.3-1.2-0.5-2.5-0.5 -0.6 0-1-0.3-1-0.9 0-0.3 0.1-0.6 0.4-0.9 0.3-0.2 0.9-0.4 2-0.4 1.6 0 3-0.1 4.3-0.3 1.8-0.4 3.2-0.8 4-1.3s1.4-0.8 1.8-0.8c0.5 0 0.7 0.3 0.8 0.8 0 0.1-0.1 0.5-0.4 1.3 -0.2 0.8-0.7 2.2-1.2 4 -1.6 5.1-3.2 10.3-4.9 15.6 -1.7 5.3-3.2 10.2-4.6 14.9 -1.4 4.6-2.6 8.6-3.5 11.8s-1.3 5.3-1.4 6.3c0 0.3 0.1 0.5 0.4 0.6 0.8-0.1 2.2-1.8 4.2-5.2 1.1-1.9 1.8-3.2 2.2-4 0.4-0.8 0.7-1.2 0.9-1.2 0.5 0 0.8 0.3 0.8 0.8 0 0.3-0.3 1.2-1 2.7s-1.6 3.2-2.7 5.1c-1.2 1.9-2.5 3.5-4 4.9s-3.1 2.1-4.8 2.2c-0.9 0-1.7-0.2-2.3-0.7 -0.6-0.5-0.9-1.5-1-3 0-1 0.2-2.4 0.6-4 0.4-1.7 0.9-3.4 1.4-5.1C328.2 90.2 328.7 88.7 329.1 87.4L329.1 87.4zM334.4 69.4c0.1-2-1-3-3.4-3 -1.9 0.1-3.9 1.2-5.9 3.3s-3.9 4.7-5.7 7.9c-1.8 3.2-3.2 6.4-4.3 9.6 -1.1 3.3-1.7 6.1-1.7 8.4 0 2 0.8 3 2.4 3.1 1.3-0.1 3-1.3 5-3.5 2-2.3 4.1-5.1 6.2-8.4 2.1-3.3 3.8-6.6 5.2-9.7C333.7 73.9 334.4 71.4 334.4 69.4L334.4 69.4z"/>
  <path d="M371.8 70.5c0-1-0.3-1.8-0.9-2.3s-1.4-0.8-2.4-0.8c-2.2 0.1-4.5 1.2-6.7 3.3s-4.3 4.8-6.1 7.9c-1.8 3.2-3.3 6.3-4.4 9.5s-1.7 5.9-1.7 8.2c0.1 2 0.9 3 2.4 3.1 1.3-0.1 2.8-0.9 4.5-2.6s3.4-3.8 5.2-6.3c1.8-2.6 3.4-5.2 4.9-7.9 1.5-2.7 2.8-5.2 3.7-7.4C371.2 73 371.7 71.4 371.8 70.5L371.8 70.5zM375.9 64.2h3.4c1 0 1.4 0.2 1.3 0.6 0 0.3-0.4 1.5-1 3.6 -0.7 2.1-1.5 4.6-2.5 7.7 -1 3-2 6.1-2.9 9.2 -1 3.1-1.8 5.8-2.5 8.1 -0.7 2.3-1 3.8-1 4.5s0.3 1 0.8 0.9c0.4 0 0.9-0.6 1.8-1.7 0.8-1.1 1.7-2.6 2.8-4.4 0.8-1.5 1.3-2.5 1.5-3s0.4-0.7 0.7-0.7c0.4 0 0.7 0.2 0.7 0.6 0 0.5-0.3 1.6-1 3.1 -0.7 1.6-1.6 3.3-2.7 5.2 -1.2 1.9-2.5 3.5-4.1 4.8 -1.5 1.4-3.2 2.1-5 2.1 -0.8 0-1.4-0.3-1.9-1 -0.5-0.6-0.7-1.5-0.7-2.5 0.1-2.3 0.5-4.8 1.2-7.5 0.8-2.7 1.5-5.3 2.1-7.7l-0.2-0.2c-0.9 1.5-2 3.2-3.3 5.3 -1.3 2.1-2.8 4.1-4.4 6.2s-3.4 3.8-5.3 5.1c-1.9 1.4-3.9 2.1-5.9 2.1 -1.8 0-3.1-0.7-4-2s-1.4-3-1.4-5.2c0-3.7 0.8-7.4 2.4-11.2 1.6-3.8 3.6-7.3 6.1-10.4 2.5-3.2 5.2-5.8 8.1-7.7s5.7-2.9 8.4-3c2.5 0.1 4.4 0.7 5.9 1.8 0.4-1.1 0.7-1.8 1.1-2.2C374.6 64.4 375.1 64.2 375.9 64.2L375.9 64.2z"/>
  <path d="M408.1 50.9H431c1.3 0 2.3-0.4 2.8-1s0.9-1.2 1.1-1.8 0.6-0.9 1-1c0.6 0.1 0.9 0.4 0.9 0.8 0 0.2-0.5 1.6-1.3 4.4 -0.8 2.7-1.8 6.3-3 10.7 -0.3 1.1-0.6 1.9-0.9 2.2s-0.5 0.5-0.7 0.5c-0.5 0-0.8-0.3-0.8-1.1 0-0.5 0.1-1.3 0.3-2.5 0.2-1.2 0.3-2.4 0.5-3.6 0.2-1.2 0.3-2.1 0.3-2.7 0-1.3-0.6-2.1-1.7-2.4 -1.1-0.3-2.4-0.5-4-0.4 -0.7 0-1.2 0-1.6 0.1 -0.4 0-0.7 0.1-0.9 0.1 -0.9 3.5-2.1 7.6-3.4 12.4 -1.3 4.8-2.7 9.6-4 14.5 -1.3 4.8-2.5 9-3.4 12.6s-1.4 5.8-1.4 6.8c0 0.7 0.3 1.1 0.8 1.3 0.5 0.2 1 0.3 1.7 0.4s1.2 0.2 1.7 0.4c0.5 0.2 0.7 0.5 0.7 1 0 0.3-0.1 0.6-0.4 0.8 -0.3 0.2-0.9 0.3-1.7 0.3 -0.6 0-1.5-0.1-2.6-0.2s-2.9-0.2-5.3-0.2c-2.2 0-3.8 0.1-5 0.2 -1.1 0.1-2 0.2-2.5 0.2 -0.9 0-1.4-0.3-1.3-0.9 0-0.5 0.3-0.9 0.8-1.1s1.1-0.4 1.9-0.5c0.7-0.1 1.4-0.2 2-0.5s1-0.7 1.2-1.4c1.2-4.5 2.5-9.5 4-15s3-10.9 4.5-16.3c1.5-5.4 2.9-10.3 4.1-14.7 -0.4-0.1-1.2-0.2-2.4-0.2 -1.6 0-3.1 0.2-4.5 0.7S406 55 405 56.1c-0.8 1-1.4 2.1-2 3.5s-1.1 2.6-1.5 3.7c-0.4 1.1-0.9 1.6-1.3 1.7 -0.6 0-1-0.4-1-1 0-0.3 0.3-1.2 0.7-2.7 0.4-1.5 1-3.2 1.6-5.1 0.6-1.9 1.2-3.6 1.7-5.2 0.5-1.6 0.9-2.6 1.1-3.1 0.3-0.8 0.7-1.2 1.3-1.2 0.4 0 0.7 0.2 0.8 0.6 0.1 0.4 0.1 1.3 0.1 2.7C406.2 50.6 406.8 51 408.1 50.9L408.1 50.9z"/>
  <path d="M451.2 70.1c0-1.2-0.3-2.1-0.9-2.8 -0.6-0.6-1.3-0.9-2.2-0.9 -1.1 0-2.2 0.3-3.4 1 -1.2 0.7-2.4 2.1-3.7 4.1 -1.5 2.4-2.7 4.7-3.6 7.1 -1 2.4-1.7 4.5-2.1 6.6 4.3-0.5 7.5-1.5 9.9-3.1 2.3-1.6 3.9-3.4 4.8-5.6C450.9 74.4 451.3 72.2 451.2 70.1L451.2 70.1zM458.5 72.6c-0.1 3.4-1.2 6.1-3.3 8.2 -2.1 2.1-4.8 3.6-8 4.5 -1.5 0.4-3 0.8-4.6 1.1 -1.6 0.3-3.1 0.5-4.4 0.7s-2.3 0.3-2.9 0.3c-0.2 0-0.4 0.4-0.5 1.1s-0.2 1.8-0.3 3.5c0 2.7 0.5 4.8 1.4 6.2 0.9 1.4 2.2 2.1 3.9 2.1 1.9 0 3.6-0.6 5.2-1.8 1.6-1.2 3.1-2.6 4.3-4.3 1.5-2 2.4-3.3 2.7-4 0.3-0.7 0.7-1 1-1 0.6 0 0.9 0.3 0.9 0.8s-0.4 1.5-1.2 3 -1.9 3.2-3.4 5.1c-1.5 1.8-3.3 3.4-5.5 4.8 -2.1 1.3-4.6 2-7.3 2.1 -3.3-0.1-5.9-1.3-7.8-3.7 -1.9-2.4-2.8-5.5-2.8-9.1 0.1-4.7 1.2-9.1 3.4-13.3 2.2-4.2 5-7.6 8.6-10.3 3.5-2.7 7.3-4 11.4-4.1 3 0.1 5.3 0.9 6.8 2.4C457.7 68.2 458.5 70.2 458.5 72.6L458.5 72.6z"/>
  <path d="M458 91.1c0-4.1 1.1-8.2 3.2-12.3 2.1-4.1 4.9-7.5 8.4-10.2s7.5-4.2 11.8-4.3c2.9 0 5 0.7 6.3 1.9s2 2.7 2 4.5c0 1.6-0.4 2.9-1.3 3.8 -0.8 0.9-2 1.4-3.4 1.4 -0.9 0-1.7-0.3-2.4-1 -0.6-0.7-1-1.7-1-3.2 0.1-3.5-0.9-5.2-2.8-5.2 -1.5 0.1-3 0.9-4.5 2.7 -1.5 1.7-2.9 3.9-4.1 6.6 -1.2 2.7-2.2 5.5-3 8.4 -0.7 2.9-1.1 5.7-1.1 8.2 0 2.6 0.6 4.6 1.7 5.9 1.1 1.3 2.5 1.9 4.3 1.9 2.4 0 4.8-1.3 7.2-3.8 1.9-2.2 3.2-4 3.8-5.4s1.1-2.2 1.6-2.2c0.6 0.1 1 0.4 0.9 0.8 0 0.7-0.4 1.9-1.1 3.5 -0.7 1.6-1.8 3.3-3.3 5.1 -1.4 1.8-3.2 3.3-5.3 4.6 -2.1 1.3-4.5 1.9-7.2 2 -3.4 0-6-1.3-7.9-3.7C458.9 98.7 458 95.4 458 91.1L458 91.1z"/>
  <path d="M515.3 72.5c1.2-2.9-0.7-3.6-1.9-3.6 -1.2 0.1-2.6 1-4.1 2.7s-3.1 3.9-4.7 6.5c-1.6 2.6-3.1 5.3-4.4 8 -1.4 2.7-2.5 5-3.3 6.9 -1.4 3.2-2.4 5.6-2.9 7.1s-0.9 2.4-1.2 2.8 -0.9 0.5-1.7 0.5h-3c-0.8 0-1.1-0.4-1-1.1 0-0.5 0.2-1.5 0.7-3.2l13-45.2c0.3-1.1 0.5-2 0.6-2.8 0-0.9-0.4-1.4-1.3-1.4l-2.1-0.3c-0.2 0-0.4 0-0.7-0.2 -0.2-0.1-0.3-0.4-0.3-0.7s0.1-0.6 0.4-0.8c0.3-0.2 0.9-0.3 2-0.3 0.7 0 1.6-0.1 2.8-0.3 1.1-0.2 2.3-0.5 3.5-0.9 1-0.4 1.9-0.9 2.6-1.4 0.7-0.5 1.3-0.8 1.7-0.8 0.5 0 0.7 0.3 0.8 0.8 0 0.1-0.1 0.5-0.4 1.3 -0.2 0.8-0.7 2.2-1.2 4l-10.5 34c1-1.6 2.1-3.6 3.4-5.8 1.3-2.3 2.8-4.5 4.4-6.6 1.6-2.1 3.3-3.9 5-5.3 1.7-1.4 3.4-2.1 5-2.2 2.2 0.1 4.2 1 5.3 3 0.4 0.8 0.7 1.7 0.7 2.6 0.2 1.3-0.7 3.4-1.4 5.7 -0.9 2.6-1.9 5.4-3 8.4 -1.1 3-2.1 5.8-3 8.3s-1.3 4.3-1.4 5.3c-0.1 0.8 0.2 1.3 0.9 1.3s1.5-0.6 2.4-1.6c0.9-1.1 1.9-2.4 3-4.1 1-1.6 1.6-2.8 1.9-3.5 0.3-0.7 0.5-1 0.8-1 0.6 0.1 0.9 0.3 0.9 0.8 0 0.6-0.4 1.7-1.3 3.3 -0.8 1.6-1.9 3.3-3.3 5.2 -1.4 1.9-2.9 3.5-4.5 4.8 -1.7 1.4-3.3 2.1-5 2.1 -1 0-1.8-0.3-2.5-1s-1-1.6-1-2.8c0-1.6 0.4-3.8 1.4-6.5l7.2-20.1C514.7 73.9 515.1 73.1 515.3 72.5L515.3 72.5z"/>
</svg>
